# Blender v2.73 (sub 0) OBJ File: ''
# www.blender.org
mtllib monkey.mtl
o Suzanne
v 0.492259 0.185578 0.720757
v -0.492259 0.185578 0.720757
v 0.558654 0.158239 0.625030
v -0.558654 0.158239 0.625030
v 0.437559 0.039107 0.650423
v -0.437559 0.039107 0.650423
v 0.410223 0.105497 0.738337
v -0.410223 0.105497 0.738337
v 0.294984 0.105500 0.759821
v -0.294984 0.105500 0.759821
v 0.265693 0.039112 0.681676
v -0.265693 0.039112 0.681676
v 0.144606 0.158242 0.697302
v -0.144606 0.158242 0.697302
v 0.214903 0.185578 0.769591
v -0.214903 0.185578 0.769591
v 0.214903 0.300819 0.769592
v -0.214903 0.300819 0.769592
v 0.144604 0.328156 0.697303
v -0.144604 0.328156 0.697303
v 0.265692 0.449244 0.681677
v -0.265692 0.449244 0.681677
v 0.294984 0.382852 0.759824
v -0.294984 0.382852 0.759824
v 0.410223 0.382855 0.738339
v -0.410223 0.382855 0.738339
v 0.437560 0.449248 0.650424
v -0.437560 0.449248 0.650424
v 0.558656 0.328159 0.625031
v -0.558656 0.328159 0.625031
v 0.492259 0.300820 0.720758
v -0.492259 0.300820 0.720758
v 0.457106 0.287148 0.769610
v -0.457106 0.287148 0.769610
v 0.396555 0.349652 0.783286
v -0.396555 0.349652 0.783286
v 0.310612 0.349651 0.800868
v -0.310612 0.349651 0.800868
v 0.252011 0.287149 0.808683
v -0.252011 0.287149 0.808683
v 0.252011 0.201202 0.808684
v -0.252011 0.201202 0.808684
v 0.310610 0.142602 0.800870
v -0.310610 0.142602 0.800870
v 0.396557 0.142601 0.783288
v -0.396557 0.142601 0.783288
v 0.457107 0.201203 0.769611
v -0.457107 0.201203 0.769611
v 0.424556 0.213572 0.794350
v -0.424556 0.213572 0.794350
v 0.382881 0.171900 0.804764
v -0.382881 0.171900 0.804764
v 0.322978 0.171901 0.817783
v -0.322978 0.171901 0.817783
v 0.281306 0.213572 0.822997
v -0.281306 0.213572 0.822997
v 0.281306 0.273477 0.822997
v -0.281306 0.273477 0.822997
v 0.322978 0.317753 0.817783
v -0.322978 0.317753 0.817783
v 0.382881 0.317754 0.804765
v -0.382881 0.317754 0.804765
v 0.424556 0.273477 0.794350
v -0.424556 0.273477 0.794350
v 0.085949 -0.957183 0.601595
v -0.085949 -0.957183 0.601595
v 0.226591 -0.939595 0.585962
v -0.226591 -0.939595 0.585962
v 0.298826 -0.892722 0.587889
v -0.298826 -0.892722 0.587889
v 0.308567 -0.777503 0.613278
v -0.308567 -0.777503 0.613278
v 0.281211 -0.570447 0.634762
v -0.281211 -0.570447 0.634762
v 0.291053 -0.119136 0.644568
v -0.291053 -0.119136 0.644568
v 0.521552 -0.042937 0.591804
v -0.521552 -0.042937 0.591804
v 0.701248 0.091844 0.552732
v -0.701248 0.091844 0.552732
v 0.789157 0.289131 0.574219
v -0.789157 0.289131 0.574219
v 0.750047 0.425802 0.650347
v -0.750047 0.425802 0.650347
v 0.582084 0.511735 0.708991
v -0.582084 0.511735 0.708991
v 0.390635 0.636763 0.763680
v -0.390635 0.636763 0.763680
v 0.248108 0.683595 0.794881
v -0.248108 0.683595 0.794881
v 0.130975 0.564499 0.800785
v -0.130975 0.564499 0.800785
v 0.041040 0.425838 0.789133
v -0.041040 0.425838 0.789133
v 0.179711 0.482512 0.806707
v -0.179711 0.482512 0.806707
v 0.273490 0.550875 0.796966
v -0.273490 0.550875 0.796966
v 0.377025 0.525488 0.773504
v -0.377025 0.525488 0.773504
v 0.539165 0.443450 0.726608
v -0.539165 0.443450 0.726608
v 0.668096 0.365298 0.673883
v -0.668096 0.365298 0.673883
v 0.683717 0.265670 0.638710
v -0.683717 0.265670 0.638710
v 0.615344 0.126971 0.636761
v -0.615344 0.126971 0.636761
v 0.470787 0.021483 0.668021
v -0.470787 0.021483 0.668021
v 0.275422 -0.009771 0.732439
v -0.275422 -0.009771 0.732439
v 0.123073 0.044915 0.757870
v -0.123073 0.044915 0.757870
v 0.097669 0.375068 0.800849
v -0.097669 0.375068 0.800849
v 0.064465 0.269572 0.777427
v -0.064465 0.269572 0.777427
v 0.074232 0.152357 0.750112
v -0.074232 0.152357 0.750112
v 0.056650 -0.912285 0.664115
v -0.056650 -0.912285 0.664115
v 0.144551 -0.890789 0.668007
v -0.144551 -0.890789 0.668007
v 0.181669 -0.822432 0.685602
v -0.181669 -0.822432 0.685602
v 0.164074 -0.570435 0.720728
v -0.164074 -0.570435 0.720728
v 0.185569 -0.732572 0.705119
v -0.185569 -0.732572 0.705119
v 0.041023 -0.377039 0.746167
v -0.041023 -0.377039 0.746167
v 0.048837 -0.564574 0.742248
v -0.048837 -0.564574 0.742248
v 0.056651 -0.713041 0.734442
v -0.056651 -0.713041 0.734442
v 0.109391 -0.253965 0.767661
v -0.109391 -0.253965 0.767661
v 0.117204 -0.183644 0.767665
v -0.117204 -0.183644 0.767665
v 0.062516 -0.136731 0.761812
v -0.062516 -0.136731 0.761812
v 0.009755 -0.162142 0.767672
v -0.009755 -0.162142 0.767672
v 0.044941 -0.302832 0.761827
v -0.044941 -0.302832 0.761827
v 0.042972 -0.283255 0.793042
v -0.042972 -0.283255 0.793042
v 0.021500 -0.166079 0.804766
v -0.021500 -0.166079 0.804766
v 0.072272 -0.140708 0.796937
v -0.072272 -0.140708 0.796937
v 0.111310 -0.185610 0.804748
v -0.111310 -0.185610 0.804748
v 0.103512 -0.244174 0.802798
v -0.103512 -0.244174 0.802798
v 0.062510 -0.183650 0.820373
v -0.062510 -0.183650 0.820373
v 0.046882 -0.242237 0.816476
v -0.046882 -0.242237 0.816476
v 0.056650 -0.085967 0.755948
v -0.056650 -0.085967 0.755948
v 0.128911 -0.179724 0.753939
v -0.128911 -0.179724 0.753939
v 0.138694 -0.267643 0.728590
v -0.138694 -0.267643 0.728590
v 0.138678 -0.373133 0.728545
v -0.138678 -0.373133 0.728545
v 0.240226 -0.377056 0.636748
v -0.240226 -0.377056 0.636748
v 0.209019 -0.279365 0.632870
v -0.209019 -0.279365 0.632870
v 0.181760 -0.195378 0.660258
v -0.181760 -0.195378 0.660258
v 0.050788 -0.750133 0.728567
v -0.050788 -0.750133 0.728567
v 0.103552 -0.779446 0.720720
v -0.103552 -0.779446 0.720720
v 0.080113 -0.851735 0.701182
v -0.080113 -0.851735 0.701182
v 0.027355 -0.879096 0.689473
v -0.027355 -0.879096 0.689473
v 0.023435 -0.863430 0.660242
v -0.023435 -0.863430 0.660242
v 0.070310 -0.838051 0.668042
v -0.070310 -0.838051 0.668042
v 0.093721 -0.781426 0.685625
v -0.093721 -0.781426 0.685625
v 0.046888 -0.761908 0.691488
v -0.046888 -0.761908 0.691488
v 0.035164 -0.810724 0.646573
v -0.035164 -0.810724 0.646573
v 0.078114 -0.804863 0.645952
v -0.078114 -0.804863 0.645952
v 0.164094 0.181663 0.765711
v -0.164094 0.181663 0.765711
v 0.152372 0.257850 0.771577
v -0.152372 0.257850 0.771577
v 0.169955 0.347711 0.775493
v -0.169955 0.347711 0.775493
v 0.195347 0.125006 0.761818
v -0.195347 0.125006 0.761818
v 0.294980 0.070299 0.742292
v -0.294980 0.070299 0.742292
v 0.429766 0.060554 0.709049
v -0.429766 0.060554 0.709049
v 0.543069 0.136736 0.679749
v -0.543069 0.136736 0.679749
v 0.607537 0.242223 0.666077
v -0.607537 0.242223 0.666077
v 0.597778 0.328176 0.673912
v -0.597778 0.328176 0.673912
v 0.504018 0.390696 0.712995
v -0.504018 0.390696 0.712995
v 0.378988 0.435630 0.748163
v -0.378988 0.435630 0.748163
v 0.296939 0.449296 0.757931
v -0.296939 0.449296 0.757931
v 0.224656 0.419992 0.771595
v -0.224656 0.419992 0.771595
v 0.250044 0.388740 0.769601
v -0.250044 0.388740 0.769601
v 0.306698 0.414132 0.761792
v -0.306698 0.414132 0.761792
v 0.377028 0.406330 0.757866
v -0.377028 0.406330 0.757866
v 0.482512 0.369222 0.724662
v -0.482512 0.369222 0.724662
v 0.558703 0.314505 0.683652
v -0.558703 0.314505 0.683652
v 0.566519 0.244175 0.677783
v -0.566519 0.244175 0.677783
v 0.515724 0.156259 0.693405
v -0.515724 0.156259 0.693405
v 0.421952 0.091790 0.722702
v -0.421952 0.091790 0.722702
v 0.304737 0.095698 0.752007
v -0.304737 0.095698 0.752007
v 0.214878 0.140631 0.765692
v -0.214878 0.140631 0.765692
v 0.205106 0.332089 0.769600
v -0.205106 0.332089 0.769600
v 0.185567 0.259806 0.767646
v -0.185567 0.259806 0.767646
v 0.189480 0.193383 0.763745
v -0.189480 0.193383 0.763745
v 0.042933 0.447412 0.675842
v -0.042933 0.447412 0.675842
v 0.130982 0.584028 0.683714
v -0.130982 0.584028 0.683714
v 0.252047 0.706991 0.675926
v -0.252047 0.706991 0.675926
v 0.408212 0.650384 0.642699
v -0.408212 0.650384 0.642699
v 0.591896 0.523499 0.589901
v -0.591896 0.523499 0.589901
v 0.761815 0.443352 0.543032
v -0.761815 0.443352 0.543032
v 0.814532 0.287154 0.468798
v -0.814532 0.287154 0.468798
v 0.709101 0.068381 0.443387
v -0.709101 0.068381 0.443387
v 0.527438 -0.068371 0.488315
v -0.527438 -0.068371 0.488315
v 0.076192 -0.502076 0.304667
v -0.076192 -0.502076 0.304667
v 0.066414 -0.668107 0.347687
v -0.066414 -0.668107 0.347687
v 0.076183 -0.871250 0.402405
v -0.076183 -0.871250 0.402405
v 0.085947 -0.968859 0.507871
v -0.085947 -0.968859 0.507871
v 0.250024 -0.943438 0.478588
v -0.250024 -0.943438 0.478588
v 0.328069 -0.865397 0.459063
v -0.328069 -0.865397 0.459063
v 0.314438 -0.699379 0.468807
v -0.314438 -0.699379 0.468807
v 0.201193 -0.627086 0.375062
v -0.201193 -0.627086 0.375062
v 0.230504 -0.832186 0.396579
v -0.230504 -0.832186 0.396579
v 0.197304 -0.451274 0.353522
v -0.197304 -0.451274 0.353522
v 0.287095 -0.496214 0.484429
v -0.287095 -0.496214 0.484429
v 0.230546 -0.267637 0.501989
v -0.230546 -0.267637 0.501989
v 0.255865 -0.345794 0.490272
v -0.255865 -0.345794 0.490272
v 0.213031 -0.209050 0.521543
v -0.213031 -0.209050 0.521543
v 0.320363 -0.148442 0.515667
v -0.320363 -0.148442 0.515667
v 0.169903 -0.054620 -0.675822
v -0.169903 -0.054620 -0.675822
v 0.160139 -0.259675 -0.457098
v -0.160139 -0.259675 -0.457098
v 0.126941 -0.386678 -0.066459
v -0.126941 -0.386678 -0.066459
v 0.097673 -0.437594 0.222636
v -0.097673 -0.437594 0.222636
v 0.211015 -0.359472 0.314447
v -0.211015 -0.359472 0.314447
v 0.740317 0.087934 0.228484
v -0.740317 0.087934 0.228484
v 0.199190 0.281300 -0.761702
v -0.199190 0.281300 -0.761702
v 0.226574 0.915961 0.093643
v -0.226574 0.915961 0.093643
v 0.226575 0.919869 -0.269592
v -0.226575 0.919869 -0.269592
v 0.228482 0.691359 -0.621064
v -0.228482 0.691359 -0.621064
v 0.709114 0.429748 0.392591
v -0.709114 0.429748 0.392591
v 0.699318 0.531299 0.199161
v -0.699318 0.531299 0.199161
v 0.718803 0.658235 -0.033292
v -0.718803 0.658235 -0.033292
v 0.718777 0.646507 -0.279377
v -0.718777 0.646507 -0.279377
v 0.707065 0.453174 -0.457081
v -0.707065 0.453174 -0.457081
v 0.543023 0.578180 -0.529382
v -0.543023 0.578180 -0.529382
v 0.546886 0.806642 -0.273507
v -0.546886 0.806642 -0.273507
v 0.546885 0.808619 0.005766
v -0.546885 0.808619 0.005766
v 0.546951 0.632896 0.249959
v -0.546951 0.632896 0.249959
v 0.564588 0.496254 0.439482
v -0.564588 0.496254 0.439482
v 0.228531 0.710971 0.380769
v -0.228531 0.710971 0.380769
v 0.281313 0.591885 0.593846
v -0.281313 0.591885 0.593846
v 0.263726 0.527592 0.541102
v -0.263726 0.527592 0.541102
v 0.036465 0.479260 0.593821
v -0.036465 0.479260 0.593821
v 0.787194 0.302769 0.306638
v -0.787194 0.302769 0.306638
v 0.808687 0.380911 0.117132
v -0.808687 0.380911 0.117132
v 0.818448 0.457092 -0.060619
v -0.818448 0.457092 -0.060619
v 0.797005 0.437567 -0.279411
v -0.797005 0.437567 -0.279411
v 0.335975 -0.267608 -0.041085
v -0.335975 -0.267608 -0.041085
v 0.541109 -0.134780 -0.039134
v -0.541109 -0.134780 -0.039134
v 0.545012 -0.078127 0.275376
v -0.545012 -0.078127 0.275376
v 0.318439 -0.193431 0.378926
v -0.318439 -0.193431 0.378926
v 0.278694 -0.281312 0.247380
v -0.278694 -0.281312 0.247380
v 0.283924 -0.164131 0.479212
v -0.283924 -0.164131 0.479212
v 0.628989 0.152386 -0.500103
v -0.628989 0.152386 -0.500103
v 0.474654 0.210982 -0.625104
v -0.474654 0.210982 -0.625104
v 0.537224 -0.076227 -0.338030
v -0.537224 -0.076227 -0.338030
v 0.388714 -0.158206 -0.390746
v -0.388714 -0.158206 -0.390746
v 0.388028 -0.023394 -0.583426
v -0.388028 -0.023394 -0.583426
v 0.963049 0.414059 -0.263894
v -0.963049 0.414059 -0.263894
v 1.115401 0.459011 -0.353747
v -1.115401 0.459011 -0.353747
v 1.259979 0.388726 -0.410372
v -1.259979 0.388726 -0.410372
v 1.277569 0.185574 -0.416227
v -1.277569 0.185574 -0.416227
v 1.140796 -0.001952 -0.367400
v -1.140796 -0.001952 -0.367400
v 0.918086 -0.087871 -0.222840
v -0.918086 -0.087871 -0.222840
v 0.945481 -0.033250 -0.254045
v -0.945481 -0.033250 -0.254045
v 1.117414 0.033165 -0.381018
v -1.117414 0.033165 -0.381018
v 1.224890 0.177742 -0.425958
v -1.224890 0.177742 -0.425958
v 1.215092 0.334044 -0.420086
v -1.215092 0.334044 -0.420086
v 1.099816 0.388744 -0.369287
v -1.099816 0.388744 -0.369287
v 0.976739 0.355534 -0.289193
v -0.976739 0.355534 -0.289193
v 0.693458 -0.048823 -0.084068
v -0.693458 -0.048823 -0.084068
v 0.728651 -0.089827 -0.148653
v -0.728651 -0.089827 -0.148653
v 0.793042 0.126992 0.001896
v -0.793042 0.126992 0.001896
v 0.869305 0.345707 -0.216999
v -0.869305 0.345707 -0.216999
v 0.810698 -0.033254 -0.197386
v -0.810698 -0.033254 -0.197386
v 0.773619 0.003906 -0.226639
v -0.773619 0.003906 -0.226639
v 0.785305 0.058590 -0.252069
v -0.785305 0.058590 -0.252069
v 0.777520 0.126954 -0.236429
v -0.777520 0.126954 -0.236429
v 0.841966 0.226590 -0.240337
v -0.841966 0.226590 -0.240337
v 0.900548 0.298885 -0.246224
v -0.900548 0.298885 -0.246224
v 0.830239 0.285204 -0.168063
v -0.830239 0.285204 -0.168063
v 0.775571 0.140628 -0.128996
v -0.775571 0.140628 -0.128996
v 0.721540 0.005188 -0.143312
v -0.721540 0.005188 -0.143312
v 0.920112 0.267608 -0.304801
v -0.920112 0.267608 -0.304801
v 0.865414 0.205096 -0.295034
v -0.865414 0.205096 -0.295034
v 0.800964 0.132803 -0.296981
v -0.800964 0.132803 -0.296981
v 0.793141 0.087920 -0.296981
v -0.793141 0.087920 -0.296981
v 0.836087 0.048821 -0.297003
v -0.836087 0.048821 -0.297003
v 0.830261 -0.000016 -0.296981
v -0.830261 -0.000016 -0.296981
v 0.847821 -0.017575 -0.267688
v -0.847821 -0.017575 -0.267688
v 0.990447 0.316437 -0.351676
v -0.990447 0.316437 -0.351676
v 1.105690 0.343787 -0.423960
v -1.105690 0.343787 -0.423960
v 1.213067 0.298831 -0.464945
v -1.213067 0.298831 -0.464945
v 1.222810 0.168019 -0.466906
v -1.222810 0.168019 -0.466906
v 1.121282 0.045000 -0.429788
v -1.121282 0.045000 -0.429788
v 0.963084 -0.009740 -0.316513
v -0.963084 -0.009740 -0.316513
v 0.877127 0.066409 -0.326281
v -0.877127 0.066409 -0.326281
v 0.947449 0.117197 -0.345835
v -0.947449 0.117197 -0.345835
v 1.008006 0.179710 -0.369280
v -1.008006 0.179710 -0.369280
v 1.066602 0.226594 -0.384937
v -1.066602 0.226594 -0.384937
v 1.023638 0.281293 -0.380990
v -1.023638 0.281293 -0.380990
v 0.955269 0.232453 -0.347774
v -0.955269 0.232453 -0.347774
v 0.896662 0.171894 -0.330192
v -0.896662 0.171894 -0.330192
v 0.832199 0.113290 -0.322360
v -0.832199 0.113290 -0.322360
v 0.871259 0.011722 -0.310651
v -0.871259 0.011722 -0.310651
v 0.966984 0.042964 -0.347787
v -0.966984 0.042964 -0.347787
v 1.078343 0.099614 -0.414187
v -1.078343 0.099614 -0.414187
v 1.158422 0.181665 -0.437657
v -1.158422 0.181665 -0.437657
v 1.160370 0.267613 -0.439620
v -1.160370 0.267613 -0.439620
v 1.104385 0.315156 -0.429824
v -1.104385 0.315156 -0.429824
v 0.910343 -0.113071 -0.318393
v -0.910343 -0.113071 -0.318393
v 1.168083 -0.019319 -0.445361
v -1.168083 -0.019319 -0.445361
v 1.328258 0.181703 -0.470877
v -1.328258 0.181703 -0.470877
v 1.300910 0.398411 -0.472788
v -1.300910 0.398411 -0.472788
v 1.133080 0.472543 -0.441441
v -1.133080 0.472543 -0.441441
v 0.949491 0.425716 -0.353586
v -0.949491 0.425716 -0.353586
v 0.927923 0.152361 -0.422001
v -0.927923 0.152361 -0.422001
v 1.156497 0.218783 -0.513727
v -1.156497 0.218783 -0.513727
v 1.310085 0.273472 -0.526081
v -1.310085 0.273472 -0.526081
v 0.836082 0.345782 -0.314583
v -0.836082 0.345782 -0.314583
v 0.765803 0.128905 -0.394738
v -0.765803 0.128905 -0.394738
v 0.699367 -0.099559 -0.261801
v -0.699367 -0.099559 -0.261801
v 0.503978 0.242710 0.717827
v 0.463967 0.198264 0.753508
v 0.460028 0.137238 0.728080
v 0.528372 0.169960 0.676298
v -0.528372 0.169960 0.676298
v -0.460028 0.137238 0.728080
v -0.463967 0.198264 0.753508
v -0.503978 0.242710 0.717827
v 0.576231 0.242710 0.621122
v 0.510799 0.086467 0.635283
v 0.585710 0.148602 0.570429
v -0.585710 0.148602 0.570429
v -0.510799 0.086467 0.635283
v -0.576231 0.242710 0.621122
v 0.424856 0.067436 0.698755
v 0.351625 0.021537 0.667025
v 0.449173 0.015953 0.597727
v -0.449173 0.015953 0.597727
v -0.351625 0.021537 0.667025
v -0.424856 0.067436 0.698755
v 0.399013 0.136226 0.767190
v 0.352114 0.093780 0.749566
v -0.352114 0.093780 0.749566
v -0.399013 0.136226 0.767190
v 0.307671 0.136223 0.784774
v 0.246645 0.137241 0.767143
v 0.278879 0.067444 0.725608
v -0.278879 0.067444 0.725608
v -0.246645 0.137241 0.767143
v -0.307671 0.136223 0.784774
v 0.192458 0.086473 0.692417
v 0.254086 0.015954 0.632836
v -0.254086 0.015954 0.632836
v -0.192458 0.086473 0.692417
v 0.175864 0.169964 0.737819
v 0.127028 0.242710 0.698279
v 0.117552 0.148600 0.652359
v -0.117552 0.148600 0.652359
v -0.127028 0.242710 0.698279
v -0.175864 0.169964 0.737819
v 0.245632 0.198259 0.793078
v 0.203182 0.242710 0.769594
v -0.203182 0.242710 0.769594
v -0.245632 0.198259 0.793078
v 0.245630 0.289604 0.793079
v 0.246645 0.350623 0.767146
v 0.175863 0.315457 0.737820
v -0.175863 0.315457 0.737820
v -0.246645 0.350623 0.767146
v -0.245630 0.289604 0.793079
v 0.192456 0.401392 0.692417
v 0.117550 0.339756 0.652359
v -0.117550 0.339756 0.652359
v -0.192456 0.401392 0.692417
v 0.278877 0.418960 0.725613
v 0.351625 0.466820 0.667025
v 0.254091 0.476296 0.632836
v -0.254091 0.476296 0.632836
v -0.351625 0.466820 0.667025
v -0.278877 0.418960 0.725613
v 0.307670 0.355059 0.784773
v 0.352114 0.394572 0.749569
v -0.352114 0.394572 0.749569
v -0.307670 0.355059 0.784773
v 0.399013 0.355056 0.767189
v 0.460029 0.350625 0.728081
v 0.424859 0.418967 0.698760
v -0.424859 0.418967 0.698760
v -0.460029 0.350625 0.728081
v -0.399013 0.355056 0.767189
v 0.510801 0.401398 0.635284
v 0.449169 0.476297 0.597728
v -0.449169 0.476297 0.597728
v -0.510801 0.401398 0.635284
v 0.528374 0.315462 0.676300
v 0.585712 0.339754 0.570429
v -0.585712 0.339754 0.570429
v -0.528374 0.315462 0.676300
v 0.463969 0.289598 0.753509
v -0.463969 0.289598 0.753509
v 0.464913 0.243199 0.767652
v 0.434147 0.325230 0.774975
v 0.450907 0.284703 0.779681
v -0.450907 0.284703 0.779681
v -0.434147 0.325230 0.774975
v -0.464913 0.243199 0.767652
v 0.352605 0.358431 0.792559
v 0.394099 0.344589 0.793509
v -0.394099 0.344589 0.793509
v -0.352605 0.358431 0.792559
v 0.275460 0.325229 0.806720
v 0.312731 0.344581 0.810918
v -0.312731 0.344581 0.810918
v -0.275460 0.325229 0.806720
v 0.243230 0.243199 0.808677
v 0.256431 0.284696 0.818080
v -0.256431 0.284696 0.818080
v -0.243230 0.243199 0.808677
v 0.275457 0.166050 0.806722
v 0.256431 0.203330 0.818081
v -0.256431 0.203330 0.818081
v -0.275457 0.166050 0.806722
v 0.352606 0.133821 0.792562
v 0.312732 0.147028 0.810920
v -0.312732 0.147028 0.810920
v -0.352606 0.133821 0.792562
v 0.434150 0.166049 0.774977
v 0.394098 0.147019 0.793510
v -0.394098 0.147019 0.793510
v -0.434150 0.166049 0.774977
v 0.450907 0.203322 0.779681
v -0.450907 0.203322 0.779681
v 0.419347 0.242873 0.797605
v 0.401114 0.195991 0.802161
v -0.419347 0.242873 0.797605
v -0.401114 0.195991 0.802161
v 0.352277 0.175807 0.813876
v -0.352277 0.175807 0.813876
v 0.305397 0.195991 0.822341
v -0.305397 0.195991 0.822341
v 0.285212 0.242873 0.823651
v -0.285212 0.242873 0.823651
v 0.305397 0.292360 0.822341
v -0.305397 0.292360 0.822341
v 0.352277 0.313196 0.813877
v -0.352277 0.313196 0.813877
v 0.401114 0.292360 0.802161
v -0.401114 0.292360 0.802161
v 0.087902 -0.969862 0.560584
v 0.164087 -0.948883 0.593783
v 0.076673 -0.936208 0.634810
v -0.000000 -0.961088 0.605500
v -0.076673 -0.936208 0.634810
v -0.164087 -0.948883 0.593783
v -0.087902 -0.969862 0.560584
v 0.246123 -0.949340 0.535678
v 0.271989 -0.922985 0.582529
v 0.192409 -0.918615 0.629912
v -0.192409 -0.918615 0.629912
v -0.271989 -0.922985 0.582529
v -0.246123 -0.949340 0.535678
v 0.330511 -0.898565 0.525414
v 0.310040 -0.845371 0.599117
v 0.245143 -0.862467 0.642604
v -0.245143 -0.862467 0.642604
v -0.310040 -0.845371 0.599117
v -0.330511 -0.898565 0.525414
v 0.335388 -0.765794 0.545928
v 0.297816 -0.686675 0.626459
v 0.252455 -0.758455 0.667498
v -0.252455 -0.758455 0.667498
v -0.297816 -0.686675 0.626459
v -0.335388 -0.765794 0.545928
v 0.308022 -0.549946 0.564970
v 0.261197 -0.457638 0.638190
v 0.226558 -0.572392 0.688480
v -0.226558 -0.572392 0.688480
v -0.261197 -0.457638 0.638190
v -0.308022 -0.549946 0.564970
v 0.200288 -0.150966 0.670030
v 0.313025 -0.148897 0.563506
v 0.412164 -0.087381 0.609882
v 0.272452 -0.069292 0.715302
v -0.272452 -0.069292 0.715302
v -0.412164 -0.087381 0.609882
v -0.313025 -0.148897 0.563506
v -0.200288 -0.150966 0.670030
v 0.529818 -0.072654 0.537609
v 0.618229 0.016160 0.577143
v 0.502028 -0.003404 0.639183
v -0.502028 -0.003404 0.639183
v -0.618229 0.016160 0.577143
v -0.529818 -0.072654 0.537609
v 0.717790 0.067489 0.495126
v 0.761326 0.183156 0.543461
v 0.665134 0.119172 0.604015
v -0.665134 0.119172 0.604015
v -0.761326 0.183156 0.543461
v -0.717790 0.067489 0.495126
v 0.822729 0.288651 0.520512
v 0.785220 0.379958 0.618628
v 0.735470 0.283259 0.617698
v -0.735470 0.283259 0.617698
v -0.785220 0.379958 0.618628
v -0.822729 0.288651 0.520512
v 0.770540 0.445737 0.603040
v 0.682688 0.458992 0.677728
v 0.712001 0.395105 0.676733
v -0.712001 0.395105 0.676733
v -0.682688 0.458992 0.677728
v -0.770540 0.445737 0.603040
v 0.594298 0.530271 0.652882
v 0.475619 0.574256 0.739272
v 0.561574 0.479080 0.739648
v -0.561574 0.479080 0.739648
v -0.475619 0.574256 0.739272
v -0.594298 0.530271 0.652882
v 0.402828 0.661628 0.707083
v 0.317878 0.679705 0.782205
v 0.379425 0.587495 0.792436
v -0.379425 0.587495 0.792436
v -0.317878 0.679705 0.782205
v -0.402828 0.661628 0.707083
v 0.244234 0.716711 0.740763
v 0.184690 0.646020 0.801235
v 0.259315 0.623137 0.819804
v -0.259315 0.623137 0.819804
v -0.184690 0.646020 0.801235
v -0.244234 0.716711 0.740763
v 0.120265 0.589876 0.748114
v 0.084063 0.478072 0.795935
v 0.153854 0.523521 0.825611
v -0.153854 0.523521 0.825611
v -0.084063 0.478072 0.795935
v -0.120265 0.589876 0.748114
v 0.036622 0.448816 0.739339
v -0.000000 0.408285 0.785256
v 0.060088 0.395569 0.813439
v -0.060088 0.395569 0.813439
v -0.036622 0.448816 0.739339
v 0.135754 0.425375 0.806212
v 0.204647 0.446350 0.777481
v 0.226604 0.529878 0.803308
v -0.226604 0.529878 0.803308
v -0.204647 0.446350 0.777481
v -0.135754 0.425375 0.806212
v 0.287174 0.486397 0.763799
v 0.322816 0.548436 0.787192
v -0.322816 0.548436 0.787192
v -0.287174 0.486397 0.763799
v 0.378501 0.468814 0.745751
v 0.445885 0.488375 0.753963
v -0.445885 0.488375 0.753963
v -0.378501 0.468814 0.745751
v 0.518674 0.411662 0.705734
v 0.624143 0.399497 0.697795
v -0.624143 0.399497 0.697795
v -0.518674 0.411662 0.705734
v 0.627083 0.341349 0.665160
v 0.683724 0.325736 0.654354
v -0.683724 0.325736 0.654354
v -0.627083 0.341349 0.665160
v 0.639289 0.248082 0.650464
v 0.662713 0.195834 0.631383
v -0.662713 0.195834 0.631383
v -0.639289 0.248082 0.650464
v 0.568966 0.128425 0.659259
v 0.548926 0.066413 0.650437
v -0.548926 0.066413 0.650437
v -0.568966 0.128425 0.659259
v 0.441986 0.040027 0.688073
v 0.379946 -0.004886 0.693896
v -0.379946 -0.004886 0.693896
v -0.441986 0.040027 0.688073
v 0.287178 0.042461 0.730123
v 0.181663 0.006817 0.761241
v -0.181663 0.006817 0.761241
v -0.287178 0.042461 0.730123
v 0.171419 0.101079 0.753030
v 0.090345 0.096198 0.746226
v 0.076200 -0.023948 0.763197
v -0.076200 -0.023948 0.763197
v -0.090345 0.096198 0.746226
v -0.171419 0.101079 0.753030
v 0.139199 0.360400 0.778943
v 0.071790 0.325248 0.791097
v -0.071790 0.325248 0.791097
v -0.139199 0.360400 0.778943
v 0.118676 0.260777 0.768179
v -0.000000 0.275441 0.785214
v 0.067885 0.210965 0.762787
v -0.067885 0.210965 0.762787
v -0.118676 0.260777 0.768179
v -0.000000 0.140635 0.748160
v 0.133812 0.171404 0.755965
v -0.133812 0.171404 0.755965
v 0.106951 -0.903981 0.665089
v 0.036628 -0.891286 0.684132
v -0.000000 -0.915216 0.664116
v -0.036628 -0.891286 0.684132
v -0.106951 -0.903981 0.665089
v 0.169455 -0.865888 0.674355
v 0.101089 -0.865401 0.693893
v -0.101089 -0.865401 0.693893
v -0.169455 -0.865888 0.674355
v 0.185575 -0.773596 0.697319
v 0.127949 -0.789224 0.712949
v -0.127949 -0.789224 0.712949
v -0.185575 -0.773596 0.697319
v 0.147956 -0.458598 0.727561
v 0.102064 -0.567016 0.736862
v 0.179217 -0.673481 0.711948
v -0.179217 -0.673481 0.711948
v -0.102064 -0.567016 0.736862
v -0.147956 -0.458598 0.727561
v 0.117208 -0.713041 0.727118
v -0.117208 -0.713041 0.727118
v 0.085951 -0.371178 0.741760
v 0.042984 -0.324307 0.748171
v 0.000000 -0.381923 0.746181
v 0.041999 -0.458109 0.747130
v -0.041999 -0.458109 0.747130
v -0.042984 -0.324307 0.748171
v -0.085951 -0.371178 0.741760
v 0.055674 -0.661273 0.736394
v -0.000000 -0.563598 0.742268
v -0.055674 -0.661273 0.736394
v -0.000000 -0.717925 0.734451
v 0.054208 -0.736968 0.732968
v -0.054208 -0.736968 0.732968
v 0.114794 -0.259355 0.747175
v 0.121107 -0.222711 0.770594
v 0.109850 -0.249547 0.787187
v 0.083526 -0.279871 0.763283
v -0.083526 -0.279871 0.763283
v -0.109850 -0.249547 0.787187
v -0.121107 -0.222711 0.770594
v -0.114794 -0.259355 0.747175
v 0.118231 -0.184605 0.753552
v 0.097673 -0.150434 0.763270
v 0.117654 -0.182191 0.787680
v -0.117654 -0.182191 0.787680
v -0.097673 -0.150434 0.763270
v -0.118231 -0.184605 0.753552
v 0.055187 -0.127939 0.750653
v 0.027836 -0.141149 0.763271
v 0.070804 -0.133887 0.780359
v -0.070804 -0.133887 0.780359
v -0.027836 -0.141149 0.763271
v -0.055187 -0.127939 0.750653
v 0.000000 -0.165031 0.757005
v 0.000000 -0.176700 0.770627
v 0.017588 -0.160208 0.787685
v -0.017588 -0.160208 0.787685
v -0.000000 -0.313575 0.761826
v 0.045409 -0.294965 0.779369
v -0.045409 -0.294965 0.779369
v -0.000000 -0.293991 0.793031
v 0.079601 -0.262751 0.795494
v 0.041998 -0.266170 0.804768
v -0.041998 -0.266170 0.804768
v -0.079601 -0.262751 0.795494
v 0.000000 -0.180713 0.808684
v 0.032727 -0.175355 0.816471
v 0.044942 -0.145093 0.798894
v -0.044942 -0.145093 0.798894
v -0.032727 -0.175355 0.816471
v 0.068858 -0.157286 0.810611
v 0.096670 -0.153881 0.798890
v -0.096670 -0.153881 0.798890
v -0.068858 -0.157286 0.810611
v 0.094242 -0.188046 0.816463
v 0.114229 -0.220749 0.808154
v -0.114229 -0.220749 0.808154
v -0.094242 -0.188046 0.816463
v 0.084483 -0.240767 0.813056
v -0.084483 -0.240767 0.813056
v 0.054697 -0.213918 0.823294
v -0.054697 -0.213918 0.823294
v -0.000000 -0.244193 0.816476
v -0.000000 -0.066428 0.745274
v 0.103067 -0.128931 0.766141
v -0.103067 -0.128931 0.766141
v 0.139177 -0.229058 0.735911
v 0.149902 -0.179723 0.734432
v -0.149902 -0.179723 0.734432
v -0.139177 -0.229058 0.735911
v 0.135755 -0.310619 0.727593
v 0.172871 -0.275458 0.695862
v -0.172871 -0.275458 0.695862
v -0.135755 -0.310619 0.727593
v 0.192373 -0.377048 0.696796
v -0.192373 -0.377048 0.696796
v 0.266578 -0.368273 0.563023
v 0.221702 -0.320394 0.633839
v -0.221702 -0.320394 0.633839
v -0.266578 -0.368273 0.563023
v 0.232936 -0.277417 0.561079
v 0.197294 -0.241760 0.639707
v -0.197294 -0.241760 0.639707
v -0.232936 -0.277417 0.561079
v 0.208142 -0.210511 0.574778
v -0.208142 -0.210511 0.574778
v 0.089375 -0.747704 0.727585
v -0.000000 -0.759887 0.727579
v 0.047859 -0.756979 0.716379
v -0.047859 -0.756979 0.716379
v -0.089375 -0.747704 0.727585
v 0.098673 -0.821937 0.710943
v 0.096222 -0.780924 0.711005
v -0.096222 -0.780924 0.711005
v -0.098673 -0.821937 0.710943
v 0.054224 -0.870301 0.693375
v 0.072787 -0.844426 0.691952
v -0.072787 -0.844426 0.691952
v -0.054224 -0.870301 0.693375
v -0.000000 -0.881051 0.688497
v 0.024422 -0.871285 0.681215
v -0.024422 -0.871285 0.681215
v -0.000000 -0.865389 0.660238
v 0.046868 -0.855131 0.662191
v 0.026366 -0.846346 0.643182
v -0.026366 -0.846346 0.643182
v -0.046868 -0.855131 0.662191
v 0.087882 -0.813149 0.676344
v 0.072242 -0.826804 0.646918
v -0.072242 -0.826804 0.646918
v -0.087882 -0.813149 0.676344
v 0.082011 -0.759021 0.691994
v 0.089800 -0.787296 0.659122
v -0.089800 -0.787296 0.659122
v -0.082011 -0.759021 0.691994
v 0.000000 -0.769705 0.689529
v 0.043959 -0.776081 0.664656
v -0.043959 -0.776081 0.664656
v 0.000000 -0.815609 0.645602
v 0.063490 -0.804373 0.647378
v -0.063490 -0.804373 0.647378
v 0.155304 0.217315 0.769128
v 0.177766 0.150894 0.762789
v 0.178252 0.187526 0.771033
v -0.178252 0.187526 0.771033
v -0.177766 0.150894 0.762789
v -0.155304 0.217315 0.769128
v 0.156768 0.301803 0.773538
v 0.172388 0.258341 0.775428
v -0.172388 0.258341 0.775428
v -0.156768 0.301803 0.773538
v 0.192422 0.389223 0.775495
v 0.191437 0.337947 0.776904
v -0.191437 0.337947 0.776904
v -0.192422 0.389223 0.775495
v 0.230022 0.099597 0.756954
v 0.206099 0.132832 0.770535
v -0.206099 0.132832 0.770535
v -0.230022 0.099597 0.756954
v 0.368723 0.052247 0.724194
v 0.300343 0.084495 0.754421
v -0.300343 0.084495 0.754421
v -0.368723 0.052247 0.724194
v 0.485443 0.090340 0.694892
v 0.425847 0.079117 0.723172
v -0.425847 0.079117 0.723172
v -0.485443 0.090340 0.694892
v 0.588487 0.190457 0.668513
v 0.528404 0.147480 0.692896
v -0.528404 0.147480 0.692896
v -0.588487 0.190457 0.668513
v 0.608030 0.289106 0.669016
v 0.584576 0.242713 0.677765
v -0.584576 0.242713 0.677765
v -0.608030 0.289106 0.669016
v 0.566526 0.361386 0.686618
v 0.576273 0.320854 0.685091
v -0.576273 0.320854 0.685091
v -0.566526 0.361386 0.686618
v 0.433692 0.415611 0.738394
v 0.492744 0.377505 0.726580
v -0.492744 0.377505 0.726580
v -0.433692 0.415611 0.738394
v 0.335032 0.447832 0.751586
v 0.378486 0.417538 0.759314
v -0.378486 0.417538 0.759314
v -0.335032 0.447832 0.751586
v 0.261286 0.440016 0.765252
v 0.303278 0.428779 0.762762
v -0.303278 0.428779 0.762762
v -0.261286 0.440016 0.765252
v 0.239789 0.401432 0.773983
v -0.239789 0.401432 0.773983
v 0.277882 0.405830 0.767647
v 0.225134 0.363833 0.769602
v 0.257904 0.378917 0.761786
v -0.257904 0.378917 0.761786
v -0.225134 0.363833 0.769602
v -0.277882 0.405830 0.767647
v 0.338933 0.414133 0.756906
v 0.308665 0.402337 0.757893
v -0.308665 0.402337 0.757893
v -0.338933 0.414133 0.756906
v 0.423909 0.391203 0.751514
v 0.375054 0.398446 0.750028
v -0.375054 0.398446 0.750028
v -0.423909 0.391203 0.751514
v 0.533794 0.342838 0.695858
v 0.472705 0.363277 0.714897
v -0.472705 0.363277 0.714897
v -0.533794 0.342838 0.695858
v 0.566521 0.282271 0.680222
v 0.542953 0.308560 0.675921
v -0.542953 0.308560 0.675921
v -0.566521 0.282271 0.680222
v 0.551865 0.201683 0.680715
v 0.550766 0.246152 0.671989
v -0.550766 0.246152 0.671989
v -0.551865 0.201683 0.680715
v 0.468839 0.116697 0.709515
v 0.503929 0.164156 0.687592
v -0.503929 0.164156 0.687592
v -0.468839 0.116697 0.709515
v 0.369204 0.083978 0.735890
v 0.417995 0.101736 0.714919
v -0.417995 0.101736 0.714919
v -0.369204 0.083978 0.735890
v 0.247108 0.117674 0.764219
v 0.308676 0.105585 0.742238
v -0.308676 0.105585 0.742238
v -0.247108 0.117674 0.764219
v 0.198762 0.165543 0.763258
v 0.222790 0.148538 0.753949
v -0.222790 0.148538 0.753949
v -0.198762 0.165543 0.763258
v 0.191428 0.296437 0.769110
v 0.214946 0.328141 0.757897
v -0.214946 0.328141 0.757897
v -0.191428 0.296437 0.769110
v 0.185568 0.224640 0.765695
v 0.195408 0.261754 0.753989
v -0.195408 0.261754 0.753989
v -0.185568 0.224640 0.765695
v 0.199310 0.199255 0.750103
v -0.199310 0.199255 0.750103
v -0.000000 0.432794 0.673902
v 0.086454 0.496173 0.679758
v 0.047157 0.448623 0.620237
v -0.047157 0.448623 0.620237
v -0.086454 0.496173 0.679758
v 0.183735 0.668471 0.683730
v 0.179270 0.575264 0.626096
v -0.179270 0.575264 0.626096
v -0.183735 0.668471 0.683730
v 0.329124 0.700659 0.661752
v 0.266201 0.662631 0.620302
v -0.266201 0.662631 0.620302
v -0.329124 0.700659 0.661752
v 0.494188 0.582533 0.618745
v 0.377504 0.621135 0.596339
v -0.377504 0.621135 0.596339
v -0.494188 0.582533 0.618745
v 0.686158 0.476131 0.562551
v 0.580188 0.506922 0.519083
v -0.580188 0.506922 0.519083
v -0.686158 0.476131 0.562551
v 0.808146 0.391607 0.516675
v 0.736931 0.433131 0.472211
v -0.736931 0.433131 0.472211
v -0.808146 0.391607 0.516675
v 0.781345 0.167039 0.433138
v 0.793101 0.290081 0.402847
v -0.793101 0.290081 0.402847
v -0.781345 0.167039 0.433138
v 0.617793 -0.009775 0.471221
v 0.706212 0.080065 0.365241
v -0.706212 0.080065 0.365241
v -0.617793 -0.009775 0.471221
v 0.430739 -0.112806 0.501014
v 0.527954 -0.060118 0.411639
v -0.527954 -0.060118 0.411639
v -0.430739 -0.112806 0.501014
v 0.066910 -0.569950 0.333002
v 0.000000 -0.514776 0.302704
v 0.088404 -0.459598 0.266575
v 0.144565 -0.476669 0.318845
v -0.144565 -0.476669 0.318845
v -0.088404 -0.459598 0.266575
v -0.066910 -0.569950 0.333002
v 0.070807 -0.775541 0.365292
v 0.000000 -0.677867 0.339918
v 0.133331 -0.648089 0.362295
v -0.133331 -0.648089 0.362295
v -0.070807 -0.775541 0.365292
v 0.081554 -0.940551 0.452235
v -0.000000 -0.881002 0.402424
v 0.152860 -0.851728 0.400924
v -0.152860 -0.851728 0.400924
v -0.081554 -0.940551 0.452235
v 0.169946 -0.956653 0.494690
v 0.000000 -0.974714 0.513729
v -0.169946 -0.956653 0.494690
v 0.308543 -0.917065 0.464946
v 0.243193 -0.908796 0.427866
v -0.243193 -0.908796 0.427866
v -0.308543 -0.917065 0.464946
v 0.324690 -0.791679 0.460509
v 0.293904 -0.830719 0.409344
v -0.293904 -0.830719 0.409344
v -0.324690 -0.791679 0.460509
v 0.300771 -0.597796 0.478571
v 0.263641 -0.634427 0.404405
v -0.263641 -0.634427 0.404405
v -0.300771 -0.597796 0.478571
v 0.215357 -0.732084 0.380452
v 0.193390 -0.529411 0.369650
v -0.193390 -0.529411 0.369650
v -0.215357 -0.732084 0.380452
v 0.205601 -0.394132 0.333013
v 0.242198 -0.449810 0.408729
v -0.242198 -0.449810 0.408729
v -0.205601 -0.394132 0.333013
v 0.272448 -0.407821 0.487841
v -0.272448 -0.407821 0.487841
v 0.240777 -0.301826 0.494169
v 0.244701 -0.242259 0.444856
v 0.222241 -0.238334 0.511763
v -0.222241 -0.238334 0.511763
v -0.244701 -0.242259 0.444856
v -0.240777 -0.301826 0.494169
v 0.230080 -0.334550 0.410159
v -0.230080 -0.334550 0.410159
v 0.234937 -0.179279 0.524949
v 0.227810 -0.192964 0.492427
v -0.227810 -0.192964 0.492427
v -0.234937 -0.179279 0.524949
v 0.311286 -0.144642 0.490923
v -0.311286 -0.144642 0.490923
v 0.000000 -0.058478 -0.712846
v 0.176253 0.087941 -0.732468
v 0.309429 -0.042942 -0.615668
v 0.168441 -0.164468 -0.585996
v -0.168441 -0.164468 -0.585996
v -0.309429 -0.042942 -0.615668
v -0.176253 0.087941 -0.732468
v -0.000000 -0.274274 -0.484413
v 0.297348 -0.219661 -0.413170
v 0.145981 -0.335370 -0.285226
v -0.145981 -0.335370 -0.285226
v -0.297348 -0.219661 -0.413170
v -0.000000 -0.404230 -0.074265
v 0.242650 -0.339310 -0.052306
v 0.108876 -0.418942 0.126929
v -0.108876 -0.418942 0.126929
v -0.242650 -0.339310 -0.052306
v 0.000000 -0.455186 0.228492
v 0.174827 -0.400466 0.239732
v -0.174827 -0.400466 0.239732
v 0.229891 -0.328220 0.288899
v -0.229891 -0.328220 0.288899
v 0.788139 0.197315 0.241184
v 0.655345 -0.009229 0.247034
v 0.779822 0.100645 0.088807
v -0.779822 0.100645 0.088807
v -0.655345 -0.009229 0.247034
v -0.788139 0.197315 0.241184
v -0.000000 0.298873 -0.800660
v 0.222114 0.493150 -0.734279
v 0.367684 0.246145 -0.688538
v -0.367684 0.246145 -0.688538
v -0.222114 0.493150 -0.734279
v -0.000000 0.928665 0.099508
v 0.227049 0.844173 0.249344
v 0.419907 0.876397 0.065801
v 0.226583 0.937489 -0.081136
v -0.226583 0.937489 -0.081136
v -0.419907 0.876397 0.065801
v -0.227049 0.844173 0.249344
v 0.000000 0.930614 -0.291082
v 0.419926 0.880802 -0.249077
v 0.227038 0.844159 -0.455083
v -0.227038 0.844159 -0.455083
v -0.419926 0.880802 -0.249077
v -0.000000 0.710812 -0.660044
v 0.421408 0.643588 -0.559143
v -0.421408 0.643588 -0.559143
v 0.646642 0.458151 0.401386
v 0.755006 0.386276 0.374033
v 0.692026 0.455151 0.302237
v -0.692026 0.455151 0.302237
v -0.755006 0.386276 0.374033
v -0.646642 0.458151 0.401386
v 0.630055 0.580232 0.196313
v 0.757861 0.470240 0.194260
v 0.713928 0.613796 0.086330
v -0.713928 0.613796 0.086330
v -0.757861 0.470240 0.194260
v -0.630055 0.580232 0.196313
v 0.636814 0.730079 -0.042068
v 0.782726 0.573755 -0.021569
v 0.718805 0.668009 -0.156339
v -0.718805 0.668009 -0.156339
v -0.782726 0.573755 -0.021569
v -0.636814 0.730079 -0.042068
v 0.636771 0.720753 -0.298428
v 0.777351 0.560099 -0.258871
v 0.715832 0.579616 -0.385301
v -0.715832 0.579616 -0.385301
v -0.777351 0.560099 -0.258871
v -0.636771 0.720753 -0.298428
v 0.768584 0.423876 -0.383377
v 0.681710 0.299858 -0.495200
v 0.627018 0.509824 -0.504478
v -0.627018 0.509824 -0.504478
v -0.681710 0.299858 -0.495200
v -0.768584 0.423876 -0.383377
v 0.523950 0.388720 -0.610897
v 0.545932 0.732935 -0.407770
v -0.545932 0.732935 -0.407770
v -0.523950 0.388720 -0.610897
v 0.546902 0.823767 -0.133388
v -0.546902 0.823767 -0.133388
v 0.546879 0.749055 0.136124
v -0.546879 0.749055 0.136124
v 0.422387 0.679728 0.323641
v 0.551429 0.526535 0.350147
v -0.551429 0.526535 0.350147
v -0.422387 0.679728 0.323641
v 0.443467 0.525693 0.491244
v -0.443467 0.525693 0.491244
v -0.000000 0.722671 0.405174
v 0.238340 0.583144 0.480534
v -0.238340 0.583144 0.480534
v 0.284666 0.533949 0.574624
v -0.284666 0.533949 0.574624
v 0.102399 0.509554 0.578687
v -0.102399 0.509554 0.578687
v 0.000000 0.483811 0.589907
v 0.793579 0.331100 0.203587
v -0.793579 0.331100 0.203587
v 0.828203 0.265672 0.031675
v 0.820844 0.430225 0.033620
v -0.820844 0.430225 0.033620
v -0.828203 0.265672 0.031675
v 0.832149 0.347704 -0.119715
v 0.808240 0.460033 -0.165131
v -0.808240 0.460033 -0.165131
v -0.832149 0.347704 -0.119715
v 0.806899 0.344431 -0.308785
v -0.806899 0.344431 -0.308785
v 0.307988 -0.277884 0.129681
v 0.362821 -0.233401 -0.227146
v 0.428329 -0.192468 -0.035712
v -0.428329 -0.192468 -0.035712
v -0.362821 -0.233401 -0.227146
v -0.307988 -0.277884 0.129681
v 0.640707 -0.088830 -0.054281
v 0.556723 -0.107899 0.113721
v 0.525499 -0.132865 -0.188089
v -0.525499 -0.132865 -0.188089
v -0.556723 -0.107899 0.113721
v -0.640707 -0.088830 -0.054281
v 0.426859 -0.134347 0.317878
v -0.426859 -0.134347 0.317878
v 0.312710 -0.169463 0.448907
v 0.305588 -0.232017 0.301112
v -0.305588 -0.232017 0.301112
v -0.312710 -0.169463 0.448907
v 0.702258 0.134795 -0.440538
v 0.572853 0.022956 -0.453745
v 0.551337 0.178754 -0.564567
v -0.551337 0.178754 -0.564567
v -0.572853 0.022956 -0.453745
v -0.702258 0.134795 -0.440538
v 0.420781 0.066429 -0.604940
v -0.420781 0.066429 -0.604940
v 0.617795 -0.077169 -0.298453
v 0.460079 -0.101633 -0.371735
v -0.460079 -0.101633 -0.371735
v -0.617795 -0.077169 -0.298453
v 0.401229 -0.076627 -0.515097
v -0.401229 -0.076627 -0.515097
v 1.029453 0.440925 -0.304918
v 0.956761 0.430631 -0.291165
v 0.911301 0.381343 -0.233621
v 0.969388 0.385813 -0.265302
v -0.969388 0.385813 -0.265302
v -0.911301 0.381343 -0.233621
v -0.956761 0.430631 -0.291165
v -1.029453 0.440925 -0.304918
v 1.126672 0.478936 -0.382502
v 1.104682 0.424887 -0.350760
v 1.199408 0.448290 -0.394264
v -1.199408 0.448290 -0.394264
v -1.104682 0.424887 -0.350760
v -1.126672 0.478936 -0.382502
v 1.286764 0.403809 -0.431865
v 1.232174 0.362369 -0.406930
v 1.288802 0.295944 -0.413788
v -1.288802 0.295944 -0.413788
v -1.232174 0.362369 -0.406930
v -1.286764 0.403809 -0.431865
v 1.309748 0.185590 -0.434790
v 1.244888 0.182630 -0.413786
v 1.227745 0.079108 -0.404999
v -1.227745 0.079108 -0.404999
v -1.244888 0.182630 -0.413786
v -1.309748 0.185590 -0.434790
v 1.157376 -0.017024 -0.392767
v 1.125207 0.017536 -0.364943
v 1.032366 -0.057608 -0.305860
v -1.032366 -0.057608 -0.305860
v -1.125207 0.017536 -0.364943
v -1.157376 -0.017024 -0.392767
v 0.910289 -0.110752 -0.248683
v 0.930807 -0.057655 -0.228678
v 0.812123 -0.097139 -0.157453
v -0.812123 -0.097139 -0.157453
v -0.930807 -0.057655 -0.228678
v -0.910289 -0.110752 -0.248683
v 1.033400 -0.009809 -0.326807
v 0.957702 -0.016645 -0.287239
v 0.866846 -0.040106 -0.198876
v -0.866846 -0.040106 -0.198876
v -0.957702 -0.016645 -0.287239
v -1.033400 -0.009809 -0.326807
v 1.185317 0.095682 -0.414720
v 1.116442 0.042938 -0.405908
v -1.116442 0.042938 -0.405908
v -1.185317 0.095682 -0.414720
v 1.235140 0.262736 -0.424495
v 1.217562 0.172372 -0.445949
v -1.217562 0.172372 -0.445949
v -1.235140 0.262736 -0.424495
v 1.168685 0.379944 -0.404439
v 1.208748 0.310605 -0.442051
v -1.208748 0.310605 -0.442051
v -1.168685 0.379944 -0.404439
v 1.028999 0.375557 -0.326797
v 1.100306 0.358955 -0.397610
v -1.100306 0.358955 -0.397610
v -1.028999 0.375557 -0.326797
v 0.936196 0.329654 -0.260875
v 0.984072 0.330135 -0.322395
v -0.984072 0.330135 -0.322395
v -0.936196 0.329654 -0.260875
v 0.736870 0.007852 -0.020574
v 0.683775 -0.071849 -0.142129
v 0.715137 -0.016778 -0.117437
v -0.715137 -0.016778 -0.117437
v -0.683775 -0.071849 -0.142129
v -0.736870 0.007852 -0.020574
v 0.698872 -0.113656 -0.174950
v 0.771622 -0.054255 -0.162756
v -0.771622 -0.054255 -0.162756
v -0.698872 -0.113656 -0.174950
v 0.788723 0.146990 -0.061109
v -0.788723 0.146990 -0.061109
v 0.854172 0.356493 -0.242292
v 0.840985 0.312071 -0.199804
v 0.883940 0.323301 -0.223290
v -0.883940 0.323301 -0.223290
v -0.840985 0.312071 -0.199804
v -0.854172 0.356493 -0.242292
v 0.838541 -0.022482 -0.237415
v 0.778993 -0.017057 -0.217350
v -0.778993 -0.017057 -0.217350
v -0.838541 -0.022482 -0.237415
v 0.815117 0.000966 -0.267677
v 0.780411 0.029287 -0.234986
v 0.733257 0.006177 -0.182364
v -0.733257 0.006177 -0.182364
v -0.780411 0.029287 -0.234986
v -0.815117 0.000966 -0.267677
v 0.789209 0.081538 -0.274047
v 0.759993 0.079597 -0.237376
v 0.821410 0.052225 -0.274078
v -0.821410 0.052225 -0.274078
v -0.759993 0.079597 -0.237376
v -0.789209 0.081538 -0.274047
v 0.793119 0.131363 -0.270135
v 0.813161 0.182143 -0.240334
v 0.767294 0.127431 -0.191013
v -0.767294 0.127431 -0.191013
v -0.813161 0.182143 -0.240334
v -0.793119 0.131363 -0.270135
v 0.869300 0.264205 -0.240842
v 0.828330 0.250995 -0.207598
v 0.858540 0.211474 -0.268687
v -0.858540 0.211474 -0.268687
v -0.828330 0.250995 -0.207598
v -0.869300 0.264205 -0.240842
v 0.914219 0.278377 -0.276498
v -0.914219 0.278377 -0.276498
v 0.815578 0.237343 -0.138761
v -0.815578 0.237343 -0.138761
v 0.735696 0.046205 -0.132578
v -0.735696 0.046205 -0.132578
v 0.952347 0.294467 -0.322381
v 0.891785 0.237330 -0.296500
v 0.929898 0.255878 -0.329193
v -0.929898 0.255879 -0.329193
v -0.891785 0.237330 -0.296500
v -0.952347 0.294467 -0.322381
v 0.836603 0.170417 -0.296497
v 0.874223 0.195803 -0.316488
v -0.874223 0.195803 -0.316488
v -0.836603 0.170417 -0.296497
v 0.779532 0.102055 -0.296949
v 0.810739 0.127917 -0.315009
v -0.810739 0.127917 -0.315009
v -0.779532 0.102055 -0.296949
v 0.819482 0.075182 -0.297005
v 0.804872 0.093292 -0.315008
v -0.804872 0.093292 -0.315008
v -0.819482 0.075182 -0.297005
v 0.840468 0.020017 -0.297012
v 0.848327 0.052251 -0.316012
v -0.848327 0.052251 -0.316012
v -0.840468 0.020017 -0.297012
v 0.825889 -0.012171 -0.289635
v 0.841499 0.002943 -0.312058
v -0.841499 0.002943 -0.312058
v -0.825889 -0.012171 -0.289635
v 0.894218 -0.016607 -0.265247
v 0.853680 -0.009274 -0.291126
v -0.853680 -0.009274 -0.291126
v -0.894218 -0.016607 -0.265247
v 1.039770 0.333038 -0.387324
v 1.001699 0.303745 -0.372642
v -1.001700 0.303745 -0.372642
v -1.039770 0.333038 -0.387324
v 1.169651 0.336434 -0.452748
v 1.109300 0.332713 -0.438062
v -1.109300 0.332713 -0.438062
v -1.169651 0.336434 -0.452748
v 1.232092 0.239774 -0.467399
v 1.204829 0.288125 -0.470294
v -1.204829 0.288125 -0.470294
v -1.232092 0.239774 -0.467399
v 1.185710 0.098221 -0.456641
v 1.212643 0.169458 -0.470304
v -1.212643 0.169458 -0.470304
v -1.185710 0.098221 -0.456641
v 1.042682 0.008846 -0.383894
v 1.114498 0.057637 -0.437564
v -1.114498 0.057637 -0.437564
v -1.042682 0.008846 -0.383894
v 0.965066 0.004424 -0.337962
v -0.965066 0.004424 -0.337962
v 0.857102 0.091803 -0.324333
v 0.884450 0.039068 -0.323331
v 0.913264 0.088873 -0.334105
v -0.913264 0.088873 -0.334105
v -0.884450 0.039068 -0.323331
v -0.857102 0.091803 -0.324333
v 0.924007 0.142593 -0.338997
v 0.963070 0.086915 -0.349268
v 0.979191 0.148454 -0.358537
v -0.979191 0.148454 -0.358537
v -0.963070 0.086915 -0.349268
v -0.924007 0.142593 -0.338997
v 0.985056 0.204617 -0.360967
v 1.035356 0.147966 -0.383440
v 1.036332 0.207059 -0.378071
v -1.036332 0.207059 -0.378071
v -1.035356 0.147966 -0.383440
v -0.985056 0.204617 -0.360967
v 1.048048 0.253940 -0.382968
v 1.097367 0.201692 -0.399094
v 1.105665 0.244658 -0.401544
v -1.105665 0.244658 -0.401544
v -1.097367 0.201692 -0.399094
v -1.048048 0.253940 -0.382968
v 1.063359 0.299527 -0.403944
v 0.987013 0.259315 -0.361940
v -0.987013 0.259315 -0.361940
v -1.063359 0.299527 -0.403944
v 0.925966 0.202662 -0.337519
v -0.925966 0.202662 -0.337519
v 0.865894 0.141615 -0.325306
v -0.865894 0.141615 -0.325306
v 0.914723 0.025371 -0.315089
v -0.914723 0.025371 -0.315089
v 1.023162 0.066894 -0.387808
v -1.023162 0.066894 -0.387808
v 1.125709 0.138685 -0.429829
v -1.125709 0.138685 -0.429829
v 1.171598 0.225617 -0.440115
v -1.171598 0.225617 -0.440115
v 1.134654 0.300008 -0.436194
v -1.134654 0.300008 -0.436194
v 1.039229 -0.079848 -0.396020
v 0.793148 -0.119483 -0.258359
v 0.916739 -0.042913 -0.390135
v -0.916739 -0.042913 -0.390135
v -0.793148 -0.119483 -0.258359
v -1.039229 -0.079848 -0.396020
v 1.272537 0.068021 -0.469352
v 1.169171 0.042077 -0.495547
v -1.169171 0.042077 -0.495547
v -1.272537 0.068021 -0.469352
v 1.337039 0.299344 -0.466471
v 1.329555 0.201723 -0.507064
v -1.329555 0.201723 -0.507064
v -1.337039 0.299344 -0.466471
v 1.229660 0.461781 -0.470737
v 1.307121 0.359376 -0.511445
v -1.307121 0.359376 -0.511445
v -1.229660 0.461781 -0.470737
v 1.032508 0.453043 -0.398003
v 1.140900 0.399420 -0.496571
v -1.140900 0.399420 -0.496571
v -1.032508 0.453043 -0.398003
v 0.884047 0.390091 -0.321378
v 0.940177 0.349627 -0.410703
v -0.940177 0.349627 -0.410703
v -0.884047 0.390091 -0.321378
v 1.036873 0.180689 -0.478054
v 0.835596 0.134766 -0.382127
v -0.835596 0.134766 -0.382127
v -1.036873 0.180689 -0.478054
v 1.257409 0.253946 -0.529519
v -1.257409 0.253946 -0.529519
v 0.808775 0.280818 -0.382502
v -0.808775 0.280818 -0.382502
v 0.723774 -0.025865 -0.353623
v -0.723774 -0.025865 -0.353623
v 0.438937 0.160777 0.759126
v -0.438937 0.160777 0.759126
v 0.487353 0.108200 0.685573
v -0.487353 0.108200 0.685573
v 0.532056 0.068651 0.581160
v -0.532056 0.068651 0.581160
v 0.351627 -0.003530 0.616249
v -0.351627 -0.003530 0.616249
v 0.351743 0.052309 0.713032
v -0.351743 0.052309 0.713032
v 0.352488 0.127186 0.776228
v -0.352488 0.127186 0.776228
v 0.270182 0.160771 0.790999
v -0.270182 0.160771 0.790999
v 0.216756 0.108209 0.734517
v -0.216756 0.108209 0.734517
v 0.171206 0.068650 0.645515
v -0.171206 0.068650 0.645515
v 0.098065 0.243200 0.654322
v -0.098065 0.243200 0.654322
v 0.160727 0.242466 0.738063
v -0.160727 0.242466 0.738063
v 0.236592 0.243077 0.793081
v -0.236592 0.243077 0.793081
v 0.270180 0.329656 0.790998
v -0.270180 0.329656 0.790998
v 0.216754 0.377947 0.734521
v -0.216754 0.377947 0.734521
v 0.171220 0.422625 0.645513
v -0.171220 0.422625 0.645513
v 0.351627 0.495788 0.616249
v -0.351627 0.495788 0.616249
v 0.351744 0.434095 0.713038
v -0.351744 0.434095 0.713038
v 0.352488 0.364096 0.776227
v -0.352488 0.364096 0.776227
v 0.438938 0.329650 0.759125
v -0.438938 0.329650 0.759125
v 0.487356 0.377956 0.685575
v -0.487356 0.377956 0.685575
v 0.532043 0.422624 0.581162
v -0.532043 0.422624 0.581162
v 0.605196 0.243200 0.566532
v -0.605196 0.243200 0.566532
v 0.543508 0.242466 0.672635
v -0.543508 0.242466 0.672635
v 0.472759 0.243077 0.751310
v -0.472759 0.243077 0.751310
v 0.455468 0.243117 0.779031
v -0.455468 0.243117 0.779031
v 0.427591 0.318964 0.785903
v -0.427591 0.318964 0.785903
v 0.352516 0.350527 0.803472
v -0.352516 0.350527 0.803472
v 0.280997 0.318956 0.816450
v -0.280997 0.318956 0.816450
v 0.250324 0.243117 0.818242
v -0.250324 0.243117 0.818242
v 0.280997 0.171594 0.816451
v -0.280997 0.171594 0.816451
v 0.352019 0.242832 0.822433
v -0.352019 0.242832 0.822433
v 0.352516 0.140919 0.803472
v -0.352516 0.140919 0.803472
v 0.427591 0.171585 0.785903
v -0.427591 0.171585 0.785903
v -0.000000 0.432993 0.736909
v 0.000000 0.352509 0.809640
v 0.000000 -0.661274 0.736412
v -0.000000 -0.306191 0.779365
v 0.000000 -0.175297 0.791354
v 0.000000 -0.765273 0.714669
v 0.000000 0.439254 0.617813
v -0.000000 0.566554 0.546801
v 0.000000 0.855582 -0.490707
v -0.000000 0.518012 -0.772262
v -0.000000 0.093337 -0.771904
v -0.000000 -0.352171 -0.304743
v 0.227017 -0.177336 0.577583
v -0.227017 -0.177336 0.577583
v 0.288627 -0.443487 0.565703
v -0.288627 -0.443487 0.565703
v 0.323900 -0.664952 0.558989
v -0.323900 -0.664952 0.558989
v 0.338817 -0.845872 0.532499
v -0.338817 -0.845872 0.532499
v 0.302364 -0.930753 0.526022
v -0.302364 -0.930753 0.526022
v 0.171411 -0.960340 0.548988
v -0.171411 -0.960340 0.548988
v 0.000000 -0.974256 0.565954
v 0.427041 -0.116863 0.545793
v -0.427041 -0.116863 0.545793
v 0.625392 -0.012468 0.525280
v -0.625392 -0.012468 0.525280
v 0.789426 0.167698 0.481939
v -0.789426 0.167698 0.481939
v 0.816715 0.393565 0.573361
v -0.816715 0.393565 0.573361
v 0.693320 0.479842 0.624552
v -0.693320 0.479842 0.624552
v 0.491488 0.592425 0.682305
v -0.491488 0.592425 0.682305
v 0.322384 0.711733 0.726727
v -0.322384 0.711733 0.726727
v 0.174736 0.676242 0.748219
v -0.174736 0.676242 0.748219
v 0.075880 0.499928 0.743972
v -0.075880 0.499928 0.743972
v 0.167043 0.407280 0.780780
v -0.167043 0.407280 0.780780
v 0.122587 0.310101 0.774050
v -0.122587 0.310101 0.774050
v 0.212816 0.071529 0.748785
v -0.212816 0.071529 0.748785
v 0.371295 0.027444 0.706648
v -0.371295 0.027444 0.706648
v 0.505724 0.075311 0.672817
v -0.505724 0.075311 0.672817
v 0.618042 0.189354 0.650702
v -0.618042 0.189354 0.650702
v 0.639903 0.300214 0.656099
v -0.639903 0.300214 0.656099
v 0.590211 0.376741 0.680686
v -0.590211 0.376741 0.680686
v 0.439193 0.443296 0.730643
v -0.439193 0.443296 0.730643
v 0.246521 0.473944 0.771127
v -0.246521 0.473944 0.771127
v -0.000000 -0.746489 0.732719
v 0.112519 -0.737341 0.726472
v -0.112519 -0.737341 0.726472
v 0.121720 -0.835614 0.702316
v -0.121720 -0.835614 0.702316
v 0.071056 -0.882615 0.687792
v -0.071056 -0.882615 0.687792
v -0.000000 -0.893486 0.682914
v 0.000000 -0.163168 0.768607
v 0.000000 -0.134446 0.747574
v 0.096108 -0.148453 0.754076
v -0.096108 -0.148453 0.754076
v 0.123712 -0.225277 0.750710
v -0.123712 -0.225277 0.750710
v 0.089564 -0.299929 0.744106
v -0.089564 -0.299929 0.744106
v 0.393845 -0.043558 0.667737
v -0.393845 -0.043558 0.667737
v 0.593591 0.050927 0.620860
v -0.593591 0.050927 0.620860
v 0.713488 0.197795 0.599384
v -0.713488 0.197795 0.599384
v 0.734007 0.355661 0.647366
v -0.734007 0.355661 0.647366
v 0.658268 0.427568 0.707067
v -0.658268 0.427568 0.707067
v 0.456947 0.536706 0.769700
v -0.456947 0.536706 0.769700
v 0.317413 0.620088 0.808816
v -0.317413 0.620088 0.808816
v 0.204880 0.592374 0.825391
v -0.204880 0.592374 0.825391
v 0.105756 0.447583 0.821345
v -0.105756 0.447583 0.821345
v 0.142404 -0.096301 0.776543
v -0.142404 -0.096301 0.776543
v 0.208238 -0.459581 0.695437
v -0.208238 -0.459581 0.695437
v 0.242805 -0.682883 0.678358
v -0.242805 -0.682883 0.678358
v 0.253804 -0.813512 0.655659
v -0.253804 -0.813512 0.655659
v 0.225122 -0.899451 0.632591
v -0.225122 -0.899451 0.632591
v 0.143945 -0.928150 0.631635
v -0.143945 -0.928150 0.631635
v -0.000000 -0.939870 0.636762
v -0.000000 0.041556 0.739037
v 0.000000 0.209502 0.765217
v 0.330027 0.484441 0.755379
v -0.330027 0.484441 0.755379
v 0.149561 0.133554 0.752308
v -0.149561 0.133554 0.752308
v 0.123679 0.214015 0.761948
v -0.123679 0.214015 0.761948
v 0.114397 -0.664325 0.730276
v -0.114397 -0.664325 0.730276
v 0.089489 -0.457254 0.742236
v -0.089489 -0.457254 0.742236
v 0.000000 -0.459086 0.747148
v -0.000000 -0.333099 0.748176
v 0.084230 -0.272381 0.781325
v -0.084230 -0.272381 0.781325
v 0.121313 -0.221241 0.791219
v -0.121313 -0.221241 0.791219
v 0.100319 -0.147911 0.782188
v -0.100319 -0.147911 0.782188
v 0.039696 -0.138510 0.782182
v -0.039696 -0.138510 0.782182
v -0.000000 -0.202428 0.823371
v 0.047755 -0.157821 0.809109
v -0.047755 -0.157821 0.809109
v 0.088120 -0.165199 0.809109
v -0.088120 -0.165199 0.809109
v 0.093996 -0.219041 0.819497
v -0.093996 -0.219041 0.819497
v 0.070107 -0.256568 0.804559
v -0.070107 -0.256568 0.804559
v -0.000000 -0.274224 0.804757
v 0.246479 -0.315758 0.560345
v -0.246479 -0.315758 0.560345
v 0.164682 -0.234433 0.705749
v -0.164682 -0.234433 0.705749
v 0.180181 -0.317951 0.695845
v -0.180181 -0.317951 0.695845
v 0.221581 -0.245062 0.565717
v -0.221581 -0.245062 0.565717
v -0.000000 -0.873243 0.680968
v 0.048723 -0.862617 0.684143
v -0.048723 -0.862617 0.684143
v 0.090618 -0.817070 0.701842
v -0.090618 -0.817070 0.701842
v 0.083873 -0.754686 0.716753
v -0.083873 -0.754686 0.716753
v 0.000000 -0.783159 0.662945
v 0.077393 -0.771825 0.664992
v -0.077393 -0.771825 0.664992
v 0.084204 -0.809410 0.658854
v -0.084204 -0.809410 0.658854
v 0.051020 -0.838773 0.644365
v -0.051020 -0.838773 0.644365
v -0.000000 -0.849032 0.642938
v 0.172633 0.220858 0.773837
v -0.172633 0.220858 0.773837
v 0.189368 0.158222 0.769204
v -0.189368 0.158222 0.769204
v 0.337955 0.427923 0.757995
v -0.337955 0.427923 0.757995
v 0.271534 0.419988 0.769470
v -0.271534 0.419988 0.769470
v 0.428773 0.399957 0.753320
v -0.428773 0.399957 0.753320
v 0.549039 0.350894 0.697659
v -0.549039 0.350894 0.697659
v 0.584698 0.285446 0.681058
v -0.584698 0.285446 0.681058
v 0.568335 0.195705 0.680084
v -0.568335 0.195705 0.680084
v 0.476878 0.105974 0.709497
v -0.476878 0.105974 0.709497
v 0.369078 0.070695 0.737089
v -0.369078 0.070695 0.737089
v 0.239425 0.109036 0.767967
v -0.239425 0.109036 0.767967
v 0.178372 0.298022 0.776289
v -0.178372 0.298022 0.776289
v 0.211828 0.373842 0.776421
v -0.211828 0.373842 0.776421
v 0.235437 0.356467 0.758895
v -0.235437 0.356467 0.758895
v 0.200329 0.295917 0.756901
v -0.200329 0.295917 0.756901
v 0.254007 0.126099 0.752941
v -0.254007 0.126099 0.752941
v 0.369213 0.094903 0.727608
v -0.369213 0.094903 0.727608
v 0.460954 0.125116 0.702226
v -0.460954 0.125116 0.702226
v 0.537094 0.208109 0.675902
v -0.537094 0.208109 0.675902
v 0.550806 0.279326 0.672942
v -0.550806 0.279326 0.672942
v 0.519560 0.335864 0.687636
v -0.519560 0.335864 0.687636
v 0.418972 0.385762 0.741173
v -0.418972 0.385762 0.741173
v 0.282310 0.394522 0.762722
v -0.282310 0.394522 0.762722
v 0.338936 0.403331 0.752081
v -0.338936 0.403331 0.752081
v 0.207143 0.172907 0.751078
v -0.207143 0.172907 0.751078
v 0.196350 0.228548 0.751077
v -0.196350 0.228548 0.751077
v 0.125451 0.489590 0.612917
v -0.125451 0.489590 0.612917
v 0.205801 0.638103 0.640732
v -0.205801 0.638103 0.640732
v 0.327748 0.665436 0.622290
v -0.327748 0.665436 0.622290
v 0.458191 0.553573 0.557591
v -0.458191 0.553573 0.557591
v 0.668229 0.463600 0.489041
v -0.668229 0.463600 0.489041
v 0.780481 0.385397 0.449753
v -0.780481 0.385397 0.449753
v 0.769913 0.178005 0.363898
v -0.769913 0.178005 0.363898
v 0.619651 -0.000407 0.387587
v -0.619651 -0.000407 0.387587
v 0.416779 -0.110897 0.449276
v -0.416779 -0.110897 0.449276
v 0.000000 0.856137 0.263759
v 0.000000 0.950193 -0.086018
v 0.000000 -0.174918 -0.618664
v -0.000000 -0.436521 0.129374
v 0.000000 -0.948355 0.456632
v -0.000000 -0.786271 0.360445
v -0.000000 -0.579465 0.325708
v 0.000000 -0.475975 0.270465
v 0.814742 0.226120 0.114081
v -0.814742 0.226120 0.114081
v 0.836388 0.300989 -0.049916
v -0.836388 0.300989 -0.049916
v 0.762953 0.282948 -0.418861
v -0.762953 0.282948 -0.418861
v 0.408677 0.442164 -0.665409
v -0.408677 0.442164 -0.665409
v 0.700284 -0.032348 0.072722
v -0.700284 -0.032348 0.072722
v 0.616226 -0.109531 -0.168076
v -0.616226 -0.109531 -0.168076
v 0.649887 0.005156 -0.400602
v -0.649887 0.005156 -0.400602
v 0.325554 0.077173 -0.661101
v -0.325554 0.077173 -0.661101
v 0.236719 -0.381193 0.408836
v -0.236719 -0.381193 0.408836
v 0.161888 -0.426844 0.279296
v -0.161888 -0.426844 0.279296
v 0.279506 -0.736006 0.403208
v -0.279506 -0.736006 0.403208
v 0.249987 -0.535768 0.407910
v -0.249987 -0.535768 0.407910
v 0.286053 -0.887311 0.430410
v -0.286053 -0.887311 0.430410
v 0.142360 -0.753941 0.373925
v -0.142360 -0.753941 0.373925
v 0.132001 -0.550301 0.349454
v -0.132001 -0.550301 0.349454
v 0.162748 -0.924807 0.441741
v -0.162748 -0.924807 0.441741
v 0.235961 -0.284861 0.404842
v -0.235961 -0.284861 0.404842
v 0.239242 -0.215271 0.474079
v -0.239242 -0.215271 0.474079
v 0.253173 -0.171731 0.501851
v -0.253173 -0.171731 0.501851
v 0.212590 -0.369275 0.155803
v -0.212590 -0.369275 0.155803
v 0.273174 -0.293028 -0.251177
v -0.273174 -0.293028 -0.251177
v 0.310873 -0.132026 -0.535572
v -0.310873 -0.132026 -0.535572
v 0.420301 0.804923 -0.407630
v -0.420301 0.804923 -0.407630
v 0.419932 0.896330 -0.089317
v -0.419932 0.896330 -0.089317
v 0.420495 0.808407 0.206608
v -0.420495 0.808407 0.206608
v 0.428954 0.561707 0.418168
v -0.428954 0.561707 0.418168
v 0.743545 0.409484 0.289049
v -0.743545 0.409484 0.289049
v 0.630804 0.487728 0.302786
v -0.630804 0.487728 0.302786
v 0.635127 0.679677 0.081495
v -0.635127 0.679677 0.081495
v 0.777703 0.535897 0.090471
v -0.777703 0.535897 0.090471
v 0.780181 0.582317 -0.139000
v -0.780181 0.582317 -0.139000
v 0.636811 0.740697 -0.170137
v -0.636811 0.740697 -0.170137
v 0.634317 0.650424 -0.414117
v -0.634317 0.650424 -0.414117
v 0.758339 0.524160 -0.343855
v -0.758339 0.524160 -0.343855
v 0.603210 0.339168 -0.558321
v -0.603210 0.339168 -0.558321
v 0.482089 0.019527 -0.522932
v -0.482089 0.019527 -0.522932
v 0.825020 0.347800 -0.205437
v -0.825020 0.347800 -0.205437
v 0.405886 -0.181761 0.158783
v -0.405886 -0.181761 0.158783
v 0.438945 -0.174143 -0.207871
v -0.438945 -0.174143 -0.207871
v 0.898171 0.395484 -0.258936
v -0.898171 0.395484 -0.258936
v 0.793471 -0.120973 -0.181669
v -0.793471 -0.120973 -0.181669
v 1.036029 -0.077805 -0.333294
v -1.036029 -0.077805 -0.333294
v 1.255047 0.070972 -0.426725
v -1.255047 0.070972 -0.426725
v 1.320598 0.304113 -0.431626
v -1.320598 0.304113 -0.431626
v 1.218665 0.467708 -0.420492
v -1.218665 0.467708 -0.420492
v 1.032201 0.459306 -0.334020
v -1.032201 0.459306 -0.334020
v 1.027388 0.409259 -0.304489
v -1.027388 0.409259 -0.304489
v 1.180029 0.415114 -0.389699
v -1.180029 0.415114 -0.389699
v 1.255629 0.280318 -0.411830
v -1.255629 0.280318 -0.411830
v 1.201046 0.088603 -0.401817
v -1.201046 0.088603 -0.401817
v 1.030688 -0.031050 -0.306210
v -1.030688 -0.031050 -0.306210
v 0.839724 -0.064627 -0.168762
v -0.839724 -0.064627 -0.168762
v 0.923848 0.356512 -0.236986
v -0.923848 0.356512 -0.236986
v 0.946337 0.306942 -0.293342
v -0.946337 0.306942 -0.293342
v 0.887128 -0.023981 -0.235232
v -0.887128 -0.023981 -0.235232
v 1.038168 0.004116 -0.356461
v -1.038168 0.004116 -0.356461
v 1.180313 0.099226 -0.435694
v -1.180313 0.099226 -0.435694
v 1.227326 0.247719 -0.445221
v -1.227326 0.247719 -0.445221
v 1.165268 0.351010 -0.428737
v -1.165268 0.351010 -0.428737
v 1.033398 0.347597 -0.358781
v -1.033398 0.347597 -0.358781
v 0.851491 0.287637 -0.216156
v -0.851491 0.287637 -0.216156
v 0.828997 0.173622 -0.270512
v -0.828997 0.173622 -0.270512
v 0.772687 0.096689 -0.270352
v -0.772687 0.096689 -0.270352
v 0.811777 0.071168 -0.281596
v -0.811777 0.071168 -0.281596
v 0.823726 0.022576 -0.269806
v -0.823726 0.022576 -0.269806
v 0.813917 -0.013636 -0.259606
v -0.813917 -0.013636 -0.259606
v 0.739314 0.032059 -0.078364
v -0.739314 0.032059 -0.078364
v 0.727727 -0.027459 -0.168243
v -0.727727 -0.027459 -0.168243
v 0.738549 0.048393 -0.192052
v -0.738549 0.048393 -0.192052
v 0.803793 0.201543 -0.198819
v -0.803793 0.201543 -0.198819
v 0.885643 0.246027 -0.269177
v -0.885643 0.246027 -0.269177
v 0.900840 0.226695 -0.320155
v -0.900840 0.226695 -0.320155
v 0.837188 -0.007589 -0.299584
v -0.837188 -0.007589 -0.299584
v 0.853207 0.024529 -0.315276
v -0.853207 0.024529 -0.315276
v 0.830865 0.077901 -0.315521
v -0.830865 0.077901 -0.315521
v 0.794880 0.106558 -0.310207
v -0.794880 0.106558 -0.310207
v 0.845653 0.162956 -0.315624
v -0.845653 0.162956 -0.315624
v 1.049362 0.320758 -0.404855
v -1.049362 0.320758 -0.404855
v 1.165082 0.323686 -0.460516
v -1.165082 0.323686 -0.460516
v 1.222648 0.234042 -0.472010
v -1.222648 0.234042 -0.472010
v 1.176144 0.106584 -0.460411
v -1.176144 0.106584 -0.460411
v 1.040036 0.023345 -0.398006
v -1.040036 0.023345 -0.398006
v 0.899596 -0.004632 -0.291123
v -0.899596 -0.004632 -0.291123
v 0.962986 0.282010 -0.345920
v -0.962986 0.282010 -0.345920
v 0.890675 0.114267 -0.329965
v -0.890675 0.114267 -0.329965
v 0.924372 0.060790 -0.331304
v -0.924372 0.060790 -0.331304
v 1.000191 0.116343 -0.369279
v -1.000191 0.116343 -0.369279
v 0.955874 0.173727 -0.349861
v -0.955874 0.173727 -0.349861
v 1.014725 0.232333 -0.372078
v -1.014725 0.232333 -0.372078
v 1.067956 0.177756 -0.392962
v -1.067956 0.177756 -0.392962
v 1.123690 0.223556 -0.411181
v -1.123690 0.223556 -0.411181
v 1.087275 0.274729 -0.401659
v -1.087275 0.274729 -0.401659
v 1.033116 0.375738 -0.458740
v -1.033116 0.375738 -0.458740
v 1.240056 0.400620 -0.516599
v -1.240056 0.400620 -0.516599
v 1.328493 0.287583 -0.496740
v -1.328493 0.287583 -0.496740
v 1.275147 0.114233 -0.510862
v -1.275147 0.114233 -0.510862
v 1.040180 -0.011390 -0.456707
v -1.040180 -0.011390 -0.456707
v 0.808148 -0.048940 -0.340822
v -0.808148 -0.048940 -0.340822
v 0.864561 0.318748 -0.377089
v -0.864561 0.318748 -0.377089
usemtl None
s off
f 1 501 1552 502
f 1 502 1506 503
f 1 503 1508 504
f 1 504 1550 501
f 2 505 1509 506
f 2 506 1507 507
f 2 507 1553 508
f 2 508 1551 505
f 3 509 1550 504
f 3 504 1508 510
f 3 510 1510 511
f 3 511 1548 509
f 4 512 1511 513
f 4 513 1509 505
f 4 505 1551 514
f 4 514 1549 512
f 5 510 1508 515
f 5 515 1514 516
f 5 516 1512 517
f 5 517 1510 510
f 6 518 1513 519
f 6 519 1515 520
f 6 520 1509 513
f 6 513 1511 518
f 7 503 1506 521
f 7 521 1516 522
f 7 522 1514 515
f 7 515 1508 503
f 8 520 1515 523
f 8 523 1517 524
f 8 524 1507 506
f 8 506 1509 520
f 9 522 1516 525
f 9 525 1518 526
f 9 526 1520 527
f 9 527 1514 522
f 10 528 1521 529
f 10 529 1519 530
f 10 530 1517 523
f 10 523 1515 528
f 11 516 1514 527
f 11 527 1520 531
f 11 531 1522 532
f 11 532 1512 516
f 12 533 1523 534
f 12 534 1521 528
f 12 528 1515 519
f 12 519 1513 533
f 13 531 1520 535
f 13 535 1526 536
f 13 536 1524 537
f 13 537 1522 531
f 14 538 1525 539
f 14 539 1527 540
f 14 540 1521 534
f 14 534 1523 538
f 15 526 1518 541
f 15 541 1528 542
f 15 542 1526 535
f 15 535 1520 526
f 16 540 1527 543
f 16 543 1529 544
f 16 544 1519 529
f 16 529 1521 540
f 17 542 1528 545
f 17 545 1530 546
f 17 546 1532 547
f 17 547 1526 542
f 18 548 1533 549
f 18 549 1531 550
f 18 550 1529 543
f 18 543 1527 548
f 19 536 1526 547
f 19 547 1532 551
f 19 551 1534 552
f 19 552 1524 536
f 20 553 1535 554
f 20 554 1533 548
f 20 548 1527 539
f 20 539 1525 553
f 21 551 1532 555
f 21 555 1538 556
f 21 556 1536 557
f 21 557 1534 551
f 22 558 1537 559
f 22 559 1539 560
f 22 560 1533 554
f 22 554 1535 558
f 23 546 1530 561
f 23 561 1540 562
f 23 562 1538 555
f 23 555 1532 546
f 24 560 1539 563
f 24 563 1541 564
f 24 564 1531 549
f 24 549 1533 560
f 25 562 1540 565
f 25 565 1542 566
f 25 566 1544 567
f 25 567 1538 562
f 26 568 1545 569
f 26 569 1543 570
f 26 570 1541 563
f 26 563 1539 568
f 27 556 1538 567
f 27 567 1544 571
f 27 571 1546 572
f 27 572 1536 556
f 28 573 1547 574
f 28 574 1545 568
f 28 568 1539 559
f 28 559 1537 573
f 29 571 1544 575
f 29 575 1550 509
f 29 509 1548 576
f 29 576 1546 571
f 30 577 1549 514
f 30 514 1551 578
f 30 578 1545 574
f 30 574 1547 577
f 31 566 1542 579
f 31 579 1552 501
f 31 501 1550 575
f 31 575 1544 566
f 32 578 1551 508
f 32 508 1553 580
f 32 580 1543 569
f 32 569 1545 578
f 33 581 1552 579
f 33 579 1542 582
f 33 582 1556 583
f 33 583 1554 581
f 34 584 1557 585
f 34 585 1543 580
f 34 580 1553 586
f 34 586 1555 584
f 35 582 1542 565
f 35 565 1540 587
f 35 587 1558 588
f 35 588 1556 582
f 36 589 1559 590
f 36 590 1541 570
f 36 570 1543 585
f 36 585 1557 589
f 37 587 1540 561
f 37 561 1530 591
f 37 591 1560 592
f 37 592 1558 587
f 38 593 1561 594
f 38 594 1531 564
f 38 564 1541 590
f 38 590 1559 593
f 39 591 1530 545
f 39 545 1528 595
f 39 595 1562 596
f 39 596 1560 591
f 40 597 1563 598
f 40 598 1529 550
f 40 550 1531 594
f 40 594 1561 597
f 41 595 1528 541
f 41 541 1518 599
f 41 599 1564 600
f 41 600 1562 595
f 42 601 1565 602
f 42 602 1519 544
f 42 544 1529 598
f 42 598 1563 601
f 43 599 1518 525
f 43 525 1516 603
f 43 603 1568 604
f 43 604 1564 599
f 44 605 1569 606
f 44 606 1517 530
f 44 530 1519 602
f 44 602 1565 605
f 45 603 1516 521
f 45 521 1506 607
f 45 607 1570 608
f 45 608 1568 603
f 46 609 1571 610
f 46 610 1507 524
f 46 524 1517 606
f 46 606 1569 609
f 47 607 1506 502
f 47 502 1552 581
f 47 581 1554 611
f 47 611 1570 607
f 48 612 1555 586
f 48 586 1553 507
f 48 507 1507 610
f 48 610 1571 612
f 49 613 1566 614
f 49 614 1570 611
f 49 611 1554 613
f 50 615 1555 612
f 50 612 1571 616
f 50 616 1567 615
f 51 617 1568 608
f 51 608 1570 614
f 51 614 1566 617
f 52 618 1567 616
f 52 616 1571 609
f 52 609 1569 618
f 53 617 1566 619
f 53 619 1564 604
f 53 604 1568 617
f 54 618 1569 605
f 54 605 1565 620
f 54 620 1567 618
f 55 619 1566 621
f 55 621 1562 600
f 55 600 1564 619
f 56 620 1565 601
f 56 601 1563 622
f 56 622 1567 620
f 57 621 1566 623
f 57 623 1560 596
f 57 596 1562 621
f 58 622 1563 597
f 58 597 1561 624
f 58 624 1567 622
f 59 623 1566 625
f 59 625 1558 592
f 59 592 1560 623
f 60 624 1561 593
f 60 593 1559 626
f 60 626 1567 624
f 61 625 1566 627
f 61 627 1556 588
f 61 588 1558 625
f 62 626 1559 589
f 62 589 1557 628
f 62 628 1567 626
f 63 627 1566 613
f 63 613 1554 583
f 63 583 1556 627
f 64 628 1557 584
f 64 584 1555 615
f 64 615 1567 628
f 65 629 1594 630
f 65 630 1679 631
f 65 631 1681 632
f 65 632 1596 629
f 66 632 1681 633
f 66 633 1680 634
f 66 634 1595 635
f 66 635 1596 632
f 67 636 1592 637
f 67 637 1677 638
f 67 638 1679 630
f 67 630 1594 636
f 68 634 1680 639
f 68 639 1678 640
f 68 640 1593 641
f 68 641 1595 634
f 69 642 1590 643
f 69 643 1675 644
f 69 644 1677 637
f 69 637 1592 642
f 70 640 1678 645
f 70 645 1676 646
f 70 646 1591 647
f 70 647 1593 640
f 71 648 1588 649
f 71 649 1673 650
f 71 650 1675 643
f 71 643 1590 648
f 72 646 1676 651
f 72 651 1674 652
f 72 652 1589 653
f 72 653 1591 646
f 73 654 1586 655
f 73 655 1671 656
f 73 656 1673 649
f 73 649 1588 654
f 74 652 1674 657
f 74 657 1672 658
f 74 658 1587 659
f 74 659 1589 652
f 75 660 1584 661
f 75 661 1597 662
f 75 662 1651 663
f 75 663 1669 660
f 76 664 1652 665
f 76 665 1598 666
f 76 666 1585 667
f 76 667 1670 664
f 77 662 1597 668
f 77 668 1599 669
f 77 669 1653 670
f 77 670 1651 662
f 78 671 1654 672
f 78 672 1600 673
f 78 673 1598 665
f 78 665 1652 671
f 79 669 1599 674
f 79 674 1601 675
f 79 675 1655 676
f 79 676 1653 669
f 80 677 1656 678
f 80 678 1602 679
f 80 679 1600 672
f 80 672 1654 677
f 81 675 1601 680
f 81 680 1603 681
f 81 681 1657 682
f 81 682 1655 675
f 82 683 1658 684
f 82 684 1604 685
f 82 685 1602 678
f 82 678 1656 683
f 83 681 1603 686
f 83 686 1605 687
f 83 687 1659 688
f 83 688 1657 681
f 84 689 1660 690
f 84 690 1606 691
f 84 691 1604 684
f 84 684 1658 689
f 85 687 1605 692
f 85 692 1607 693
f 85 693 1661 694
f 85 694 1659 687
f 86 695 1662 696
f 86 696 1608 697
f 86 697 1606 690
f 86 690 1660 695
f 87 693 1607 698
f 87 698 1609 699
f 87 699 1663 700
f 87 700 1661 693
f 88 701 1664 702
f 88 702 1610 703
f 88 703 1608 696
f 88 696 1662 701
f 89 699 1609 704
f 89 704 1611 705
f 89 705 1665 706
f 89 706 1663 699
f 90 707 1666 708
f 90 708 1612 709
f 90 709 1610 702
f 90 702 1664 707
f 91 705 1611 710
f 91 710 1613 711
f 91 711 1667 712
f 91 712 1665 705
f 92 713 1668 714
f 92 714 1614 715
f 92 715 1612 708
f 92 708 1666 713
f 93 711 1613 716
f 93 716 1572 717
f 93 717 1573 718
f 93 718 1667 711
f 94 719 1573 717
f 94 717 1572 720
f 94 720 1614 714
f 94 714 1668 719
f 95 721 1615 722
f 95 722 1633 723
f 95 723 1665 712
f 95 712 1667 721
f 96 713 1666 724
f 96 724 1634 725
f 96 725 1616 726
f 96 726 1668 713
f 97 723 1633 727
f 97 727 1684 728
f 97 728 1663 706
f 97 706 1665 723
f 98 707 1664 729
f 98 729 1685 730
f 98 730 1634 724
f 98 724 1666 707
f 99 731 1631 732
f 99 732 1661 700
f 99 700 1663 728
f 99 728 1684 731
f 100 729 1664 701
f 100 701 1662 733
f 100 733 1632 734
f 100 734 1685 729
f 101 735 1629 736
f 101 736 1659 694
f 101 694 1661 732
f 101 732 1631 735
f 102 733 1662 695
f 102 695 1660 737
f 102 737 1630 738
f 102 738 1632 733
f 103 739 1627 740
f 103 740 1657 688
f 103 688 1659 736
f 103 736 1629 739
f 104 737 1660 689
f 104 689 1658 741
f 104 741 1628 742
f 104 742 1630 737
f 105 743 1625 744
f 105 744 1655 682
f 105 682 1657 740
f 105 740 1627 743
f 106 741 1658 683
f 106 683 1656 745
f 106 745 1626 746
f 106 746 1628 741
f 107 747 1623 748
f 107 748 1653 676
f 107 676 1655 744
f 107 744 1625 747
f 108 745 1656 677
f 108 677 1654 749
f 108 749 1624 750
f 108 750 1626 745
f 109 751 1621 752
f 109 752 1651 670
f 109 670 1653 748
f 109 748 1623 751
f 110 749 1654 671
f 110 671 1652 753
f 110 753 1622 754
f 110 754 1624 749
f 111 755 1619 756
f 111 756 1669 663
f 111 663 1651 752
f 111 752 1621 755
f 112 753 1652 664
f 112 664 1670 757
f 112 757 1620 758
f 112 758 1622 753
f 113 756 1619 759
f 113 759 1686 760
f 113 760 1682 761
f 113 761 1669 756
f 114 762 1682 763
f 114 763 1687 764
f 114 764 1620 757
f 114 757 1670 762
f 115 765 1615 721
f 115 721 1667 718
f 115 718 1573 766
f 115 766 1617 765
f 116 767 1573 719
f 116 719 1668 726
f 116 726 1616 768
f 116 768 1618 767
f 117 769 1617 766
f 117 766 1573 770
f 117 770 1683 771
f 117 771 1688 769
f 118 772 1683 770
f 118 770 1573 767
f 118 767 1618 773
f 118 773 1689 772
f 119 774 1682 760
f 119 760 1686 775
f 119 775 1688 771
f 119 771 1683 774
f 120 772 1689 776
f 120 776 1687 763
f 120 763 1682 774
f 120 774 1683 772
f 121 777 1640 778
f 121 778 1642 779
f 121 779 1681 631
f 121 631 1679 777
f 122 633 1681 779
f 122 779 1642 780
f 122 780 1641 781
f 122 781 1680 633
f 123 782 1638 783
f 123 783 1640 777
f 123 777 1679 638
f 123 638 1677 782
f 124 639 1680 781
f 124 781 1641 784
f 124 784 1639 785
f 124 785 1678 639
f 125 786 1636 787
f 125 787 1638 782
f 125 782 1677 644
f 125 644 1675 786
f 126 645 1678 785
f 126 785 1639 788
f 126 788 1637 789
f 126 789 1676 645
f 127 656 1671 790
f 127 790 1692 791
f 127 791 1690 792
f 127 792 1673 656
f 128 793 1691 794
f 128 794 1693 795
f 128 795 1672 657
f 128 657 1674 793
f 129 796 1636 786
f 129 786 1675 650
f 129 650 1673 792
f 129 792 1690 796
f 130 793 1674 651
f 130 651 1676 789
f 130 789 1637 797
f 130 797 1691 793
f 131 798 1649 799
f 131 799 1695 800
f 131 800 1694 801
f 131 801 1692 798
f 132 802 1694 800
f 132 800 1695 803
f 132 803 1650 804
f 132 804 1693 802
f 133 805 1690 791
f 133 791 1692 801
f 133 801 1694 806
f 133 806 1574 805
f 134 806 1694 802
f 134 802 1693 794
f 134 794 1691 807
f 134 807 1574 806
f 135 808 1635 809
f 135 809 1636 796
f 135 796 1690 805
f 135 805 1574 808
f 136 807 1691 797
f 136 797 1637 810
f 136 810 1635 808
f 136 808 1574 807
f 137 811 1647 812
f 137 812 1698 813
f 137 813 1696 814
f 137 814 1649 811
f 138 815 1697 816
f 138 816 1699 817
f 138 817 1648 818
f 138 818 1650 815
f 139 819 1645 820
f 139 820 1700 821
f 139 821 1698 812
f 139 812 1647 819
f 140 817 1699 822
f 140 822 1701 823
f 140 823 1646 824
f 140 824 1648 817
f 141 825 1644 826
f 141 826 1702 827
f 141 827 1700 820
f 141 820 1645 825
f 142 823 1701 828
f 142 828 1703 829
f 142 829 1644 830
f 142 830 1646 823
f 143 831 1643 832
f 143 832 1576 833
f 143 833 1702 826
f 143 826 1644 831
f 144 829 1703 834
f 144 834 1576 832
f 144 832 1643 831
f 144 831 1644 829
f 145 835 1695 799
f 145 799 1649 814
f 145 814 1696 836
f 145 836 1575 835
f 146 837 1697 815
f 146 815 1650 803
f 146 803 1695 835
f 146 835 1575 837
f 147 838 1575 836
f 147 836 1696 839
f 147 839 1711 840
f 147 840 1713 838
f 148 841 1712 842
f 148 842 1697 837
f 148 837 1575 838
f 148 838 1713 841
f 149 833 1576 843
f 149 843 1704 844
f 149 844 1705 845
f 149 845 1702 833
f 150 846 1706 847
f 150 847 1704 843
f 150 843 1576 834
f 150 834 1703 846
f 151 827 1702 845
f 151 845 1705 848
f 151 848 1707 849
f 151 849 1700 827
f 152 850 1708 851
f 152 851 1706 846
f 152 846 1703 828
f 152 828 1701 850
f 153 821 1700 849
f 153 849 1707 852
f 153 852 1709 853
f 153 853 1698 821
f 154 854 1710 855
f 154 855 1708 850
f 154 850 1701 822
f 154 822 1699 854
f 155 813 1698 853
f 155 853 1709 856
f 155 856 1711 839
f 155 839 1696 813
f 156 842 1712 857
f 156 857 1710 854
f 156 854 1699 816
f 156 816 1697 842
f 157 844 1704 858
f 157 858 1709 852
f 157 852 1707 848
f 157 848 1705 844
f 158 851 1708 855
f 158 855 1710 859
f 158 859 1704 847
f 158 847 1706 851
f 159 858 1704 860
f 159 860 1713 840
f 159 840 1711 856
f 159 856 1709 858
f 160 857 1712 841
f 160 841 1713 860
f 160 860 1704 859
f 160 859 1710 857
f 161 861 1644 825
f 161 825 1645 862
f 161 862 1669 761
f 161 761 1682 861
f 162 762 1670 863
f 162 863 1646 830
f 162 830 1644 861
f 162 861 1682 762
f 163 862 1645 819
f 163 819 1647 864
f 163 864 1716 865
f 163 865 1669 862
f 164 866 1717 867
f 164 867 1648 824
f 164 824 1646 863
f 164 863 1670 866
f 165 864 1647 811
f 165 811 1649 868
f 165 868 1718 869
f 165 869 1716 864
f 166 870 1719 871
f 166 871 1650 818
f 166 818 1648 867
f 166 867 1717 870
f 167 868 1649 798
f 167 798 1692 790
f 167 790 1671 872
f 167 872 1718 868
f 168 873 1672 795
f 168 795 1693 804
f 168 804 1650 871
f 168 871 1719 873
f 169 655 1586 874
f 169 874 1714 875
f 169 875 1718 872
f 169 872 1671 655
f 170 873 1719 876
f 170 876 1715 877
f 170 877 1587 658
f 170 658 1672 873
f 171 875 1714 878
f 171 878 1720 879
f 171 879 1716 869
f 171 869 1718 875
f 172 870 1717 880
f 172 880 1721 881
f 172 881 1715 876
f 172 876 1719 870
f 173 882 1584 660
f 173 660 1669 865
f 173 865 1716 879
f 173 879 1720 882
f 174 880 1717 866
f 174 866 1670 667
f 174 667 1585 883
f 174 883 1721 880
f 175 884 1636 809
f 175 809 1635 885
f 175 885 1577 886
f 175 886 1727 884
f 176 887 1577 885
f 176 885 1635 810
f 176 810 1637 888
f 176 888 1728 887
f 177 889 1638 787
f 177 787 1636 884
f 177 884 1727 890
f 177 890 1725 889
f 178 891 1728 888
f 178 888 1637 788
f 178 788 1639 892
f 178 892 1726 891
f 179 893 1640 783
f 179 783 1638 889
f 179 889 1725 894
f 179 894 1723 893
f 180 895 1726 892
f 180 892 1639 784
f 180 784 1641 896
f 180 896 1724 895
f 181 897 1642 778
f 181 778 1640 893
f 181 893 1723 898
f 181 898 1722 897
f 182 899 1724 896
f 182 896 1641 780
f 182 780 1642 897
f 182 897 1722 899
f 183 900 1722 898
f 183 898 1723 901
f 183 901 1734 902
f 183 902 1736 900
f 184 903 1735 904
f 184 904 1724 899
f 184 899 1722 900
f 184 900 1736 903
f 185 901 1723 894
f 185 894 1725 905
f 185 905 1732 906
f 185 906 1734 901
f 186 907 1733 908
f 186 908 1726 895
f 186 895 1724 904
f 186 904 1735 907
f 187 905 1725 890
f 187 890 1727 909
f 187 909 1730 910
f 187 910 1732 905
f 188 911 1731 912
f 188 912 1728 891
f 188 891 1726 908
f 188 908 1733 911
f 189 909 1727 886
f 189 886 1577 913
f 189 913 1729 914
f 189 914 1730 909
f 190 915 1729 913
f 190 913 1577 887
f 190 887 1728 912
f 190 912 1731 915
f 191 914 1729 916
f 191 916 1736 902
f 191 902 1734 917
f 191 917 1730 914
f 192 918 1735 903
f 192 903 1736 916
f 192 916 1729 915
f 192 915 1731 918
f 193 910 1730 917
f 193 917 1734 906
f 193 906 1732 910
f 194 911 1733 907
f 194 907 1735 918
f 194 918 1731 911
f 195 919 1688 775
f 195 775 1686 920
f 195 920 1739 921
f 195 921 1737 919
f 196 922 1740 923
f 196 923 1687 776
f 196 776 1689 924
f 196 924 1738 922
f 197 925 1617 769
f 197 769 1688 919
f 197 919 1737 926
f 197 926 1759 925
f 198 927 1738 924
f 198 924 1689 773
f 198 773 1618 928
f 198 928 1760 927
f 199 929 1615 765
f 199 765 1617 925
f 199 925 1759 930
f 199 930 1761 929
f 200 931 1760 928
f 200 928 1618 768
f 200 768 1616 932
f 200 932 1762 931
f 201 920 1686 759
f 201 759 1619 933
f 201 933 1757 934
f 201 934 1739 920
f 202 935 1758 936
f 202 936 1620 764
f 202 764 1687 923
f 202 923 1740 935
f 203 933 1619 755
f 203 755 1621 937
f 203 937 1755 938
f 203 938 1757 933
f 204 939 1756 940
f 204 940 1622 758
f 204 758 1620 936
f 204 936 1758 939
f 205 937 1621 751
f 205 751 1623 941
f 205 941 1753 942
f 205 942 1755 937
f 206 943 1754 944
f 206 944 1624 754
f 206 754 1622 940
f 206 940 1756 943
f 207 941 1623 747
f 207 747 1625 945
f 207 945 1751 946
f 207 946 1753 941
f 208 947 1752 948
f 208 948 1626 750
f 208 750 1624 944
f 208 944 1754 947
f 209 945 1625 743
f 209 743 1627 949
f 209 949 1749 950
f 209 950 1751 945
f 210 951 1750 952
f 210 952 1628 746
f 210 746 1626 948
f 210 948 1752 951
f 211 949 1627 739
f 211 739 1629 953
f 211 953 1747 954
f 211 954 1749 949
f 212 955 1748 956
f 212 956 1630 742
f 212 742 1628 952
f 212 952 1750 955
f 213 953 1629 735
f 213 735 1631 957
f 213 957 1745 958
f 213 958 1747 953
f 214 959 1746 960
f 214 960 1632 738
f 214 738 1630 956
f 214 956 1748 959
f 215 957 1631 731
f 215 731 1684 961
f 215 961 1741 962
f 215 962 1745 957
f 216 963 1742 964
f 216 964 1685 734
f 216 734 1632 960
f 216 960 1746 963
f 217 961 1684 727
f 217 727 1633 965
f 217 965 1743 966
f 217 966 1741 961
f 218 967 1744 968
f 218 968 1634 730
f 218 730 1685 964
f 218 964 1742 967
f 219 965 1633 722
f 219 722 1615 929
f 219 929 1761 969
f 219 969 1743 965
f 220 970 1762 932
f 220 932 1616 725
f 220 725 1634 968
f 220 968 1744 970
f 221 971 1743 969
f 221 969 1761 972
f 221 972 1763 973
f 221 973 1781 971
f 222 974 1764 975
f 222 975 1762 970
f 222 970 1744 976
f 222 976 1782 974
f 223 977 1741 966
f 223 966 1743 971
f 223 971 1781 978
f 223 978 1783 977
f 224 979 1782 976
f 224 976 1744 967
f 224 967 1742 980
f 224 980 1784 979
f 225 981 1745 962
f 225 962 1741 977
f 225 977 1783 982
f 225 982 1779 981
f 226 983 1784 980
f 226 980 1742 963
f 226 963 1746 984
f 226 984 1780 983
f 227 985 1747 958
f 227 958 1745 981
f 227 981 1779 986
f 227 986 1777 985
f 228 987 1780 984
f 228 984 1746 959
f 228 959 1748 988
f 228 988 1778 987
f 229 989 1749 954
f 229 954 1747 985
f 229 985 1777 990
f 229 990 1775 989
f 230 991 1778 988
f 230 988 1748 955
f 230 955 1750 992
f 230 992 1776 991
f 231 993 1751 950
f 231 950 1749 989
f 231 989 1775 994
f 231 994 1773 993
f 232 995 1776 992
f 232 992 1750 951
f 232 951 1752 996
f 232 996 1774 995
f 233 997 1753 946
f 233 946 1751 993
f 233 993 1773 998
f 233 998 1771 997
f 234 999 1774 996
f 234 996 1752 947
f 234 947 1754 1000
f 234 1000 1772 999
f 235 1001 1755 942
f 235 942 1753 997
f 235 997 1771 1002
f 235 1002 1769 1001
f 236 1003 1772 1000
f 236 1000 1754 943
f 236 943 1756 1004
f 236 1004 1770 1003
f 237 1005 1757 938
f 237 938 1755 1001
f 237 1001 1769 1006
f 237 1006 1767 1005
f 238 1007 1770 1004
f 238 1004 1756 939
f 238 939 1758 1008
f 238 1008 1768 1007
f 239 1009 1739 934
f 239 934 1757 1005
f 239 1005 1767 1010
f 239 1010 1785 1009
f 240 1011 1768 1008
f 240 1008 1758 935
f 240 935 1740 1012
f 240 1012 1786 1011
f 241 972 1761 930
f 241 930 1759 1013
f 241 1013 1765 1014
f 241 1014 1763 972
f 242 1015 1766 1016
f 242 1016 1760 931
f 242 931 1762 975
f 242 975 1764 1015
f 243 1013 1759 926
f 243 926 1737 1017
f 243 1017 1787 1018
f 243 1018 1765 1013
f 244 1019 1788 1020
f 244 1020 1738 927
f 244 927 1760 1016
f 244 1016 1766 1019
f 245 1017 1737 921
f 245 921 1739 1009
f 245 1009 1785 1021
f 245 1021 1787 1017
f 246 1022 1786 1012
f 246 1012 1740 922
f 246 922 1738 1020
f 246 1020 1788 1022
f 247 1023 1572 716
f 247 716 1613 1024
f 247 1024 1789 1025
f 247 1025 1578 1023
f 248 1026 1790 1027
f 248 1027 1614 720
f 248 720 1572 1023
f 248 1023 1578 1026
f 249 1024 1613 710
f 249 710 1611 1028
f 249 1028 1791 1029
f 249 1029 1789 1024
f 250 1030 1792 1031
f 250 1031 1612 715
f 250 715 1614 1027
f 250 1027 1790 1030
f 251 1028 1611 704
f 251 704 1609 1032
f 251 1032 1793 1033
f 251 1033 1791 1028
f 252 1034 1794 1035
f 252 1035 1610 709
f 252 709 1612 1031
f 252 1031 1792 1034
f 253 1032 1609 698
f 253 698 1607 1036
f 253 1036 1795 1037
f 253 1037 1793 1032
f 254 1038 1796 1039
f 254 1039 1608 703
f 254 703 1610 1035
f 254 1035 1794 1038
f 255 1036 1607 692
f 255 692 1605 1040
f 255 1040 1797 1041
f 255 1041 1795 1036
f 256 1042 1798 1043
f 256 1043 1606 697
f 256 697 1608 1039
f 256 1039 1796 1042
f 257 1040 1605 686
f 257 686 1603 1044
f 257 1044 1799 1045
f 257 1045 1797 1040
f 258 1046 1800 1047
f 258 1047 1604 691
f 258 691 1606 1043
f 258 1043 1798 1046
f 259 1044 1603 680
f 259 680 1601 1048
f 259 1048 1801 1049
f 259 1049 1799 1044
f 260 1050 1802 1051
f 260 1051 1602 685
f 260 685 1604 1047
f 260 1047 1800 1050
f 261 1048 1601 674
f 261 674 1599 1052
f 261 1052 1803 1053
f 261 1053 1801 1048
f 262 1054 1804 1055
f 262 1055 1600 679
f 262 679 1602 1051
f 262 1051 1802 1054
f 263 1052 1599 668
f 263 668 1597 1056
f 263 1056 1805 1057
f 263 1057 1803 1052
f 264 1058 1806 1059
f 264 1059 1598 673
f 264 673 1600 1055
f 264 1055 1804 1058
f 265 1060 1813 1061
f 265 1061 1814 1062
f 265 1062 1833 1063
f 265 1063 1843 1060
f 266 1064 1834 1065
f 266 1065 1814 1061
f 266 1061 1813 1066
f 266 1066 1844 1064
f 267 1067 1812 1068
f 267 1068 1813 1060
f 267 1060 1843 1069
f 267 1069 1841 1067
f 268 1070 1844 1066
f 268 1066 1813 1068
f 268 1068 1812 1071
f 268 1071 1842 1070
f 269 1072 1811 1073
f 269 1073 1812 1067
f 269 1067 1841 1074
f 269 1074 1845 1072
f 270 1075 1842 1071
f 270 1071 1812 1073
f 270 1073 1811 1076
f 270 1076 1846 1075
f 271 1077 1594 629
f 271 629 1596 1078
f 271 1078 1811 1072
f 271 1072 1845 1077
f 272 1076 1811 1078
f 272 1078 1596 635
f 272 635 1595 1079
f 272 1079 1846 1076
f 273 1080 1592 636
f 273 636 1594 1077
f 273 1077 1845 1081
f 273 1081 1839 1080
f 274 1082 1846 1079
f 274 1079 1595 641
f 274 641 1593 1083
f 274 1083 1840 1082
f 275 1084 1590 642
f 275 642 1592 1080
f 275 1080 1839 1085
f 275 1085 1835 1084
f 276 1086 1840 1083
f 276 1083 1593 647
f 276 647 1591 1087
f 276 1087 1836 1086
f 277 1088 1588 648
f 277 648 1590 1084
f 277 1084 1835 1089
f 277 1089 1837 1088
f 278 1090 1836 1087
f 278 1087 1591 653
f 278 653 1589 1091
f 278 1091 1838 1090
f 279 1089 1835 1092
f 279 1092 1841 1069
f 279 1069 1843 1093
f 279 1093 1837 1089
f 280 1094 1844 1070
f 280 1070 1842 1095
f 280 1095 1836 1090
f 280 1090 1838 1094
f 281 1092 1835 1085
f 281 1085 1839 1081
f 281 1081 1845 1074
f 281 1074 1841 1092
f 282 1075 1846 1082
f 282 1082 1840 1086
f 282 1086 1836 1095
f 282 1095 1842 1075
f 283 1096 1831 1097
f 283 1097 1837 1093
f 283 1093 1843 1063
f 283 1063 1833 1096
f 284 1064 1844 1094
f 284 1094 1838 1098
f 284 1098 1832 1099
f 284 1099 1834 1064
f 285 1100 1586 654
f 285 654 1588 1088
f 285 1088 1837 1097
f 285 1097 1831 1100
f 286 1098 1838 1091
f 286 1091 1589 659
f 286 659 1587 1101
f 286 1101 1832 1098
f 287 878 1714 1102
f 287 1102 1847 1103
f 287 1103 1849 1104
f 287 1104 1720 878
f 288 1105 1850 1106
f 288 1106 1848 1107
f 288 1107 1715 881
f 288 881 1721 1105
f 289 874 1586 1100
f 289 1100 1831 1108
f 289 1108 1847 1102
f 289 1102 1714 874
f 290 1107 1848 1109
f 290 1109 1832 1101
f 290 1101 1587 877
f 290 877 1715 1107
f 291 1110 1584 882
f 291 882 1720 1104
f 291 1104 1849 1111
f 291 1111 1851 1110
f 292 1112 1850 1105
f 292 1105 1721 883
f 292 883 1585 1113
f 292 1113 1852 1112
f 293 661 1584 1110
f 293 1110 1851 1114
f 293 1114 1805 1056
f 293 1056 1597 661
f 294 1059 1806 1115
f 294 1115 1852 1113
f 294 1113 1585 666
f 294 666 1598 1059
f 295 1116 1582 1117
f 295 1117 1829 1118
f 295 1118 1857 1119
f 295 1119 1809 1116
f 296 1120 1858 1121
f 296 1121 1830 1122
f 296 1122 1582 1116
f 296 1116 1809 1120
f 297 1123 1809 1119
f 297 1119 1857 1124
f 297 1124 1855 1125
f 297 1125 1583 1123
f 298 1126 1856 1127
f 298 1127 1858 1120
f 298 1120 1809 1123
f 298 1123 1583 1126
f 299 1128 1583 1125
f 299 1125 1855 1129
f 299 1129 1853 1130
f 299 1130 1810 1128
f 300 1131 1854 1132
f 300 1132 1856 1126
f 300 1126 1583 1128
f 300 1128 1810 1131
f 301 1133 1810 1130
f 301 1130 1853 1134
f 301 1134 1833 1062
f 301 1062 1814 1133
f 302 1065 1834 1135
f 302 1135 1854 1131
f 302 1131 1810 1133
f 302 1133 1814 1065
f 303 1108 1831 1096
f 303 1096 1833 1134
f 303 1134 1853 1136
f 303 1136 1847 1108
f 304 1137 1854 1135
f 304 1135 1834 1099
f 304 1099 1832 1109
f 304 1109 1848 1137
f 305 1138 1801 1053
f 305 1053 1803 1139
f 305 1139 1823 1140
f 305 1140 1815 1138
f 306 1141 1824 1142
f 306 1142 1804 1054
f 306 1054 1802 1143
f 306 1143 1816 1141
f 307 1144 1581 1145
f 307 1145 1821 1146
f 307 1146 1829 1117
f 307 1117 1582 1144
f 308 1122 1830 1147
f 308 1147 1822 1148
f 308 1148 1581 1144
f 308 1144 1582 1122
f 309 1149 1807 1150
f 309 1150 1863 1151
f 309 1151 1861 1152
f 309 1152 1808 1149
f 310 1153 1862 1154
f 310 1154 1864 1155
f 310 1155 1807 1149
f 310 1149 1808 1153
f 311 1156 1808 1152
f 311 1152 1861 1157
f 311 1157 1859 1158
f 311 1158 1580 1156
f 312 1159 1860 1160
f 312 1160 1862 1153
f 312 1153 1808 1156
f 312 1156 1580 1159
f 313 1161 1580 1158
f 313 1158 1859 1162
f 313 1162 1821 1145
f 313 1145 1581 1161
f 314 1148 1822 1163
f 314 1163 1860 1159
f 314 1159 1580 1161
f 314 1161 1581 1148
f 315 1164 1797 1045
f 315 1045 1799 1165
f 315 1165 1867 1166
f 315 1166 1869 1164
f 316 1167 1868 1168
f 316 1168 1800 1046
f 316 1046 1798 1169
f 316 1169 1870 1167
f 317 1170 1869 1166
f 317 1166 1867 1171
f 317 1171 1873 1172
f 317 1172 1871 1170
f 318 1173 1874 1174
f 318 1174 1868 1167
f 318 1167 1870 1175
f 318 1175 1872 1173
f 319 1176 1871 1172
f 319 1172 1873 1177
f 319 1177 1875 1178
f 319 1178 1877 1176
f 320 1179 1876 1180
f 320 1180 1874 1173
f 320 1173 1872 1181
f 320 1181 1878 1179
f 321 1182 1877 1178
f 321 1178 1875 1183
f 321 1183 1881 1184
f 321 1184 1879 1182
f 322 1185 1882 1186
f 322 1186 1876 1179
f 322 1179 1878 1187
f 322 1187 1880 1185
f 323 1188 1819 1189
f 323 1189 1883 1190
f 323 1190 1879 1184
f 323 1184 1881 1188
f 324 1185 1880 1191
f 324 1191 1884 1192
f 324 1192 1820 1193
f 324 1193 1882 1185
f 325 1194 1821 1162
f 325 1162 1859 1195
f 325 1195 1879 1190
f 325 1190 1883 1194
f 326 1191 1880 1196
f 326 1196 1860 1163
f 326 1163 1822 1197
f 326 1197 1884 1191
f 327 1195 1859 1157
f 327 1157 1861 1198
f 327 1198 1877 1182
f 327 1182 1879 1195
f 328 1187 1878 1199
f 328 1199 1862 1160
f 328 1160 1860 1196
f 328 1196 1880 1187
f 329 1198 1861 1151
f 329 1151 1863 1200
f 329 1200 1871 1176
f 329 1176 1877 1198
f 330 1181 1872 1201
f 330 1201 1864 1154
f 330 1154 1862 1199
f 330 1199 1878 1181
f 331 1200 1863 1202
f 331 1202 1865 1203
f 331 1203 1869 1170
f 331 1170 1871 1200
f 332 1175 1870 1204
f 332 1204 1866 1205
f 332 1205 1864 1201
f 332 1201 1872 1175
f 333 1206 1795 1041
f 333 1041 1797 1164
f 333 1164 1869 1203
f 333 1203 1865 1206
f 334 1204 1870 1169
f 334 1169 1798 1042
f 334 1042 1796 1207
f 334 1207 1866 1204
f 335 1208 1579 1209
f 335 1209 1865 1202
f 335 1202 1863 1150
f 335 1150 1807 1208
f 336 1155 1864 1205
f 336 1205 1866 1210
f 336 1210 1579 1208
f 336 1208 1807 1155
f 337 1211 1789 1029
f 337 1029 1791 1033
f 337 1033 1793 1037
f 337 1037 1795 1211
f 338 1038 1794 1034
f 338 1034 1792 1030
f 338 1030 1790 1212
f 338 1212 1796 1038
f 339 1213 1789 1211
f 339 1211 1795 1206
f 339 1206 1865 1209
f 339 1209 1579 1213
f 340 1210 1866 1207
f 340 1207 1796 1212
f 340 1212 1790 1214
f 340 1214 1579 1210
f 341 1215 1578 1025
f 341 1025 1789 1213
f 341 1213 1579 1215
f 342 1215 1579 1214
f 342 1214 1790 1026
f 342 1026 1578 1215
f 343 1165 1799 1049
f 343 1049 1801 1138
f 343 1138 1815 1216
f 343 1216 1867 1165
f 344 1217 1816 1143
f 344 1143 1802 1050
f 344 1050 1800 1168
f 344 1168 1868 1217
f 345 1216 1815 1218
f 345 1218 1817 1219
f 345 1219 1873 1171
f 345 1171 1867 1216
f 346 1174 1874 1220
f 346 1220 1818 1221
f 346 1221 1816 1217
f 346 1217 1868 1174
f 347 1219 1817 1222
f 347 1222 1887 1223
f 347 1223 1875 1177
f 347 1177 1873 1219
f 348 1180 1876 1224
f 348 1224 1888 1225
f 348 1225 1818 1220
f 348 1220 1874 1180
f 349 1226 1819 1188
f 349 1188 1881 1183
f 349 1183 1875 1223
f 349 1223 1887 1226
f 350 1224 1876 1186
f 350 1186 1882 1193
f 350 1193 1820 1227
f 350 1227 1888 1224
f 351 1228 1853 1129
f 351 1129 1855 1229
f 351 1229 1891 1230
f 351 1230 1889 1228
f 352 1231 1892 1232
f 352 1232 1856 1132
f 352 1132 1854 1233
f 352 1233 1890 1231
f 353 1234 1823 1235
f 353 1235 1889 1230
f 353 1230 1891 1236
f 353 1236 1825 1234
f 354 1237 1892 1231
f 354 1231 1890 1238
f 354 1238 1824 1239
f 354 1239 1826 1237
f 355 1139 1803 1057
f 355 1057 1805 1240
f 355 1240 1889 1235
f 355 1235 1823 1139
f 356 1238 1890 1241
f 356 1241 1806 1058
f 356 1058 1804 1142
f 356 1142 1824 1238
f 357 1240 1805 1242
f 357 1242 1849 1103
f 357 1103 1847 1243
f 357 1243 1889 1240
f 358 1244 1848 1106
f 358 1106 1850 1245
f 358 1245 1806 1241
f 358 1241 1890 1244
f 359 1243 1847 1136
f 359 1136 1853 1228
f 359 1228 1889 1243
f 360 1244 1890 1233
f 360 1233 1854 1137
f 360 1137 1848 1244
f 361 1242 1805 1114
f 361 1114 1851 1111
f 361 1111 1849 1242
f 362 1245 1850 1112
f 362 1112 1852 1115
f 362 1115 1806 1245
f 363 1189 1819 1246
f 363 1246 1827 1247
f 363 1247 1885 1248
f 363 1248 1883 1189
f 364 1249 1886 1250
f 364 1250 1828 1251
f 364 1251 1820 1192
f 364 1192 1884 1249
f 365 1146 1821 1194
f 365 1194 1883 1248
f 365 1248 1885 1252
f 365 1252 1829 1146
f 366 1253 1886 1249
f 366 1249 1884 1197
f 366 1197 1822 1147
f 366 1147 1830 1253
f 367 1254 1825 1236
f 367 1236 1891 1255
f 367 1255 1885 1247
f 367 1247 1827 1254
f 368 1250 1886 1256
f 368 1256 1892 1237
f 368 1237 1826 1257
f 368 1257 1828 1250
f 369 1229 1855 1124
f 369 1124 1857 1258
f 369 1258 1885 1255
f 369 1255 1891 1229
f 370 1256 1886 1259
f 370 1259 1858 1127
f 370 1127 1856 1232
f 370 1232 1892 1256
f 371 1118 1829 1252
f 371 1252 1885 1258
f 371 1258 1857 1118
f 372 1121 1858 1259
f 372 1259 1886 1253
f 372 1253 1830 1121
f 373 1260 1905 1261
f 373 1261 1893 1262
f 373 1262 1919 1263
f 373 1263 1907 1260
f 374 1264 1920 1265
f 374 1265 1894 1266
f 374 1266 1906 1267
f 374 1267 1908 1264
f 375 1268 1905 1260
f 375 1260 1907 1269
f 375 1269 1909 1270
f 375 1270 1903 1268
f 376 1271 1910 1272
f 376 1272 1908 1267
f 376 1267 1906 1273
f 376 1273 1904 1271
f 377 1274 1903 1270
f 377 1270 1909 1275
f 377 1275 1911 1276
f 377 1276 1901 1274
f 378 1277 1912 1278
f 378 1278 1910 1271
f 378 1271 1904 1279
f 378 1279 1902 1277
f 379 1280 1901 1276
f 379 1276 1911 1281
f 379 1281 1913 1282
f 379 1282 1899 1280
f 380 1283 1914 1284
f 380 1284 1912 1277
f 380 1277 1902 1285
f 380 1285 1900 1283
f 381 1286 1899 1282
f 381 1282 1913 1287
f 381 1287 1915 1288
f 381 1288 1897 1286
f 382 1289 1916 1290
f 382 1290 1914 1283
f 382 1283 1900 1291
f 382 1291 1898 1289
f 383 1292 1897 1288
f 383 1288 1915 1293
f 383 1293 1917 1294
f 383 1294 1895 1292
f 384 1295 1918 1296
f 384 1296 1916 1289
f 384 1289 1898 1297
f 384 1297 1896 1295
f 385 1293 1915 1298
f 385 1298 1925 1299
f 385 1299 1923 1300
f 385 1300 1917 1293
f 386 1301 1924 1302
f 386 1302 1926 1303
f 386 1303 1916 1296
f 386 1296 1918 1301
f 387 1287 1913 1304
f 387 1304 1927 1305
f 387 1305 1925 1298
f 387 1298 1915 1287
f 388 1303 1926 1306
f 388 1306 1928 1307
f 388 1307 1914 1290
f 388 1290 1916 1303
f 389 1281 1911 1308
f 389 1308 1929 1309
f 389 1309 1927 1304
f 389 1304 1913 1281
f 390 1307 1928 1310
f 390 1310 1930 1311
f 390 1311 1912 1284
f 390 1284 1914 1307
f 391 1275 1909 1312
f 391 1312 1931 1313
f 391 1313 1929 1308
f 391 1308 1911 1275
f 392 1311 1930 1314
f 392 1314 1932 1315
f 392 1315 1910 1278
f 392 1278 1912 1311
f 393 1269 1907 1316
f 393 1316 1933 1317
f 393 1317 1931 1312
f 393 1312 1909 1269
f 394 1315 1932 1318
f 394 1318 1934 1319
f 394 1319 1908 1272
f 394 1272 1910 1315
f 395 1316 1907 1263
f 395 1263 1919 1320
f 395 1320 1921 1321
f 395 1321 1933 1316
f 396 1322 1922 1323
f 396 1323 1920 1264
f 396 1264 1908 1319
f 396 1319 1934 1322
f 397 1324 1823 1234
f 397 1234 1825 1325
f 397 1325 1949 1326
f 397 1326 1947 1324
f 398 1327 1950 1328
f 398 1328 1826 1239
f 398 1239 1824 1329
f 398 1329 1948 1327
f 399 1325 1825 1330
f 399 1330 1895 1294
f 399 1294 1917 1331
f 399 1331 1949 1325
f 400 1332 1918 1295
f 400 1295 1896 1333
f 400 1333 1826 1328
f 400 1328 1950 1332
f 401 1218 1815 1140
f 401 1140 1823 1324
f 401 1324 1947 1334
f 401 1334 1817 1218
f 402 1335 1948 1329
f 402 1329 1824 1141
f 402 1141 1816 1221
f 402 1221 1818 1335
f 403 1336 1887 1337
f 403 1337 1935 1338
f 403 1338 1919 1262
f 403 1262 1893 1336
f 404 1265 1920 1339
f 404 1339 1936 1340
f 404 1340 1888 1341
f 404 1341 1894 1265
f 405 1331 1917 1300
f 405 1300 1923 1342
f 405 1342 1945 1343
f 405 1343 1949 1331
f 406 1344 1946 1345
f 406 1345 1924 1301
f 406 1301 1918 1332
f 406 1332 1950 1344
f 407 1346 1943 1347
f 407 1347 1951 1348
f 407 1348 1949 1343
f 407 1343 1945 1346
f 408 1344 1950 1349
f 408 1349 1952 1350
f 408 1350 1944 1351
f 408 1351 1946 1344
f 409 1352 1939 1353
f 409 1353 1951 1347
f 409 1347 1943 1354
f 409 1354 1941 1352
f 410 1355 1944 1350
f 410 1350 1952 1356
f 410 1356 1940 1357
f 410 1357 1942 1355
f 411 1358 1937 1359
f 411 1359 1953 1360
f 411 1360 1951 1353
f 411 1353 1939 1358
f 412 1356 1952 1361
f 412 1361 1954 1362
f 412 1362 1938 1363
f 412 1363 1940 1356
f 413 1364 1935 1365
f 413 1365 1953 1359
f 413 1359 1937 1366
f 413 1366 1955 1364
f 414 1367 1938 1362
f 414 1362 1954 1368
f 414 1368 1936 1369
f 414 1369 1956 1367
f 415 1320 1919 1338
f 415 1338 1935 1364
f 415 1364 1955 1370
f 415 1370 1921 1320
f 416 1371 1956 1369
f 416 1369 1936 1339
f 416 1339 1920 1323
f 416 1323 1922 1371
f 417 1222 1817 1372
f 417 1372 1953 1365
f 417 1365 1935 1337
f 417 1337 1887 1222
f 418 1340 1936 1368
f 418 1368 1954 1373
f 418 1373 1818 1225
f 418 1225 1888 1340
f 419 1372 1817 1334
f 419 1334 1947 1374
f 419 1374 1951 1360
f 419 1360 1953 1372
f 420 1361 1952 1375
f 420 1375 1948 1335
f 420 1335 1818 1373
f 420 1373 1954 1361
f 421 1374 1947 1326
f 421 1326 1949 1348
f 421 1348 1951 1374
f 422 1375 1952 1349
f 422 1349 1950 1327
f 422 1327 1948 1375
f 423 1376 1921 1370
f 423 1370 1955 1377
f 423 1377 1957 1378
f 423 1378 1981 1376
f 424 1379 1958 1380
f 424 1380 1956 1371
f 424 1371 1922 1381
f 424 1381 1982 1379
f 425 1377 1955 1366
f 425 1366 1937 1382
f 425 1382 1967 1383
f 425 1383 1957 1377
f 426 1384 1968 1385
f 426 1385 1938 1367
f 426 1367 1956 1380
f 426 1380 1958 1384
f 427 1382 1937 1358
f 427 1358 1939 1386
f 427 1386 1965 1387
f 427 1387 1967 1382
f 428 1388 1966 1389
f 428 1389 1940 1363
f 428 1363 1938 1385
f 428 1385 1968 1388
f 429 1386 1939 1352
f 429 1352 1941 1390
f 429 1390 1963 1391
f 429 1391 1965 1386
f 430 1392 1964 1393
f 430 1393 1942 1357
f 430 1357 1940 1389
f 430 1389 1966 1392
f 431 1390 1941 1354
f 431 1354 1943 1394
f 431 1394 1961 1395
f 431 1395 1963 1390
f 432 1396 1962 1397
f 432 1397 1944 1355
f 432 1355 1942 1393
f 432 1393 1964 1396
f 433 1394 1943 1346
f 433 1346 1945 1398
f 433 1398 1959 1399
f 433 1399 1961 1394
f 434 1400 1960 1401
f 434 1401 1946 1351
f 434 1351 1944 1397
f 434 1397 1962 1400
f 435 1398 1945 1342
f 435 1342 1923 1402
f 435 1402 1979 1403
f 435 1403 1959 1398
f 436 1404 1980 1405
f 436 1405 1924 1345
f 436 1345 1946 1401
f 436 1401 1960 1404
f 437 1406 1933 1321
f 437 1321 1921 1376
f 437 1376 1981 1407
f 437 1407 1969 1406
f 438 1408 1982 1381
f 438 1381 1922 1322
f 438 1322 1934 1409
f 438 1409 1970 1408
f 439 1410 1931 1317
f 439 1317 1933 1406
f 439 1406 1969 1411
f 439 1411 1971 1410
f 440 1412 1970 1409
f 440 1409 1934 1318
f 440 1318 1932 1413
f 440 1413 1972 1412
f 441 1414 1929 1313
f 441 1313 1931 1410
f 441 1410 1971 1415
f 441 1415 1973 1414
f 442 1416 1972 1413
f 442 1413 1932 1314
f 442 1314 1930 1417
f 442 1417 1974 1416
f 443 1418 1927 1309
f 443 1309 1929 1414
f 443 1414 1973 1419
f 443 1419 1975 1418
f 444 1420 1974 1417
f 444 1417 1930 1310
f 444 1310 1928 1421
f 444 1421 1976 1420
f 445 1422 1925 1305
f 445 1305 1927 1418
f 445 1418 1975 1423
f 445 1423 1977 1422
f 446 1424 1976 1421
f 446 1421 1928 1306
f 446 1306 1926 1425
f 446 1425 1978 1424
f 447 1402 1923 1299
f 447 1299 1925 1422
f 447 1422 1977 1426
f 447 1426 1979 1402
f 448 1427 1978 1425
f 448 1425 1926 1302
f 448 1302 1924 1405
f 448 1405 1980 1427
f 449 1428 1963 1395
f 449 1395 1961 1429
f 449 1429 1985 1430
f 449 1430 1983 1428
f 450 1431 1986 1432
f 450 1432 1962 1396
f 450 1396 1964 1433
f 450 1433 1984 1431
f 451 1434 1983 1430
f 451 1430 1985 1435
f 451 1435 1987 1436
f 451 1436 1989 1434
f 452 1437 1988 1438
f 452 1438 1986 1431
f 452 1431 1984 1439
f 452 1439 1990 1437
f 453 1440 1989 1436
f 453 1436 1987 1441
f 453 1441 1993 1442
f 453 1442 1991 1440
f 454 1443 1994 1444
f 454 1444 1988 1437
f 454 1437 1990 1445
f 454 1445 1992 1443
f 455 1446 1991 1442
f 455 1442 1993 1447
f 455 1447 1995 1448
f 455 1448 1997 1446
f 456 1449 1996 1450
f 456 1450 1994 1443
f 456 1443 1992 1451
f 456 1451 1998 1449
f 457 1452 1969 1407
f 457 1407 1981 1453
f 457 1453 1991 1446
f 457 1446 1997 1452
f 458 1451 1992 1454
f 458 1454 1982 1408
f 458 1408 1970 1455
f 458 1455 1998 1451
f 459 1378 1957 1456
f 459 1456 1989 1440
f 459 1440 1991 1453
f 459 1453 1981 1378
f 460 1454 1992 1445
f 460 1445 1990 1457
f 460 1457 1958 1379
f 460 1379 1982 1454
f 461 1456 1957 1383
f 461 1383 1967 1458
f 461 1458 1983 1434
f 461 1434 1989 1456
f 462 1439 1984 1459
f 462 1459 1968 1384
f 462 1384 1958 1457
f 462 1457 1990 1439
f 463 1391 1963 1428
f 463 1428 1983 1458
f 463 1458 1967 1387
f 463 1387 1965 1391
f 464 1388 1968 1459
f 464 1459 1984 1433
f 464 1433 1964 1392
f 464 1392 1966 1388
f 465 1399 1959 1403
f 465 1403 1979 1460
f 465 1460 1985 1429
f 465 1429 1961 1399
f 466 1432 1986 1461
f 466 1461 1980 1404
f 466 1404 1960 1400
f 466 1400 1962 1432
f 467 1426 1977 1462
f 467 1462 1987 1435
f 467 1435 1985 1460
f 467 1460 1979 1426
f 468 1461 1986 1438
f 468 1438 1988 1463
f 468 1463 1978 1427
f 468 1427 1980 1461
f 469 1423 1975 1464
f 469 1464 1993 1441
f 469 1441 1987 1462
f 469 1462 1977 1423
f 470 1463 1988 1444
f 470 1444 1994 1465
f 470 1465 1976 1424
f 470 1424 1978 1463
f 471 1419 1973 1466
f 471 1466 1995 1447
f 471 1447 1993 1464
f 471 1464 1975 1419
f 472 1465 1994 1450
f 472 1450 1996 1467
f 472 1467 1974 1420
f 472 1420 1976 1465
f 473 1415 1971 1468
f 473 1468 1997 1448
f 473 1448 1995 1466
f 473 1466 1973 1415
f 474 1467 1996 1449
f 474 1449 1998 1469
f 474 1469 1972 1416
f 474 1416 1974 1467
f 475 1411 1969 1452
f 475 1452 1997 1468
f 475 1468 1971 1411
f 476 1412 1972 1469
f 476 1469 1998 1455
f 476 1455 1970 1412
f 477 1470 1897 1292
f 477 1292 1895 1471
f 477 1471 2009 1472
f 477 1472 2007 1470
f 478 1473 2010 1474
f 478 1474 1896 1297
f 478 1297 1898 1475
f 478 1475 2008 1473
f 479 1476 1899 1286
f 479 1286 1897 1470
f 479 1470 2007 1477
f 479 1477 2005 1476
f 480 1478 2008 1475
f 480 1475 1898 1291
f 480 1291 1900 1479
f 480 1479 2006 1478
f 481 1480 1901 1280
f 481 1280 1899 1476
f 481 1476 2005 1481
f 481 1481 2003 1480
f 482 1482 2006 1479
f 482 1479 1900 1285
f 482 1285 1902 1483
f 482 1483 2004 1482
f 483 1484 1903 1274
f 483 1274 1901 1480
f 483 1480 2003 1485
f 483 1485 2001 1484
f 484 1486 2004 1483
f 484 1483 1902 1279
f 484 1279 1904 1487
f 484 1487 2002 1486
f 485 1488 1905 1268
f 485 1268 1903 1484
f 485 1484 2001 1489
f 485 1489 1999 1488
f 486 1490 2002 1487
f 486 1487 1904 1273
f 486 1273 1906 1491
f 486 1491 2000 1490
f 487 1492 1893 1261
f 487 1261 1905 1488
f 487 1488 1999 1493
f 487 1493 2011 1492
f 488 1494 2000 1491
f 488 1491 1906 1266
f 488 1266 1894 1495
f 488 1495 2012 1494
f 489 1493 1999 1496
f 489 1496 2007 1472
f 489 1472 2009 1497
f 489 1497 2011 1493
f 490 1498 2010 1473
f 490 1473 2008 1499
f 490 1499 2000 1494
f 490 1494 2012 1498
f 491 1496 1999 1489
f 491 1489 2001 1500
f 491 1500 2005 1477
f 491 1477 2007 1496
f 492 1478 2006 1501
f 492 1501 2002 1490
f 492 1490 2000 1499
f 492 1499 2008 1478
f 493 1500 2001 1485
f 493 1485 2003 1481
f 493 1481 2005 1500
f 494 1501 2006 1482
f 494 1482 2004 1486
f 494 1486 2002 1501
f 495 1502 1819 1226
f 495 1226 1887 1336
f 495 1336 1893 1492
f 495 1492 2011 1502
f 496 1495 1894 1341
f 496 1341 1888 1227
f 496 1227 1820 1503
f 496 1503 2012 1495
f 497 1246 1819 1502
f 497 1502 2011 1497
f 497 1497 2009 1504
f 497 1504 1827 1246
f 498 1505 2010 1498
f 498 1498 2012 1503
f 498 1503 1820 1251
f 498 1251 1828 1505
f 499 1330 1825 1254
f 499 1254 1827 1504
f 499 1504 2009 1471
f 499 1471 1895 1330
f 500 1474 2010 1505
f 500 1505 1828 1257
f 500 1257 1826 1333
f 500 1333 1896 1474
